sim/simulation/qsim/oc.msim.vcd
$comment
	File created using the following command:
		vcd file oc.msim.vcd -direction
$end
$date
	Fri Apr 05 16:59:32 2024
$end
$version
	ModelSim Version 10.5b
$end
$timescale
	1ps
$end

$scope module oc_vhd_vec_tst $end
$var wire 1 ! b $end
$var wire 1 " b_b $end
$var wire 1 # b_r $end
$var wire 1 $ clk $end
$var wire 1 % oct [7] $end
$var wire 1 & oct [6] $end
$var wire 1 ' oct [5] $end
$var wire 1 ( oct [4] $end
$var wire 1 ) oct [3] $end
$var wire 1 * oct [2] $end
$var wire 1 + oct [1] $end
$var wire 1 , oct [0] $end
$var wire 1 - octava [3] $end
$var wire 1 . octava [2] $end
$var wire 1 / octava [1] $end
$var wire 1 0 octava [0] $end

$scope module i1 $end
$var wire 1 1 gnd $end
$var wire 1 2 vcc $end
$var wire 1 3 unknown $end
$var wire 1 4 devoe $end
$var wire 1 5 devclrn $end
$var wire 1 6 devpor $end
$var wire 1 7 ww_devoe $end
$var wire 1 8 ww_devclrn $end
$var wire 1 9 ww_devpor $end
$var wire 1 : ww_b_r $end
$var wire 1 ; ww_b_b $end
$var wire 1 < ww_clk $end
$var wire 1 = ww_octava [3] $end
$var wire 1 > ww_octava [2] $end
$var wire 1 ? ww_octava [1] $end
$var wire 1 @ ww_octava [0] $end
$var wire 1 A ww_oct [7] $end
$var wire 1 B ww_oct [6] $end
$var wire 1 C ww_oct [5] $end
$var wire 1 D ww_oct [4] $end
$var wire 1 E ww_oct [3] $end
$var wire 1 F ww_oct [2] $end
$var wire 1 G ww_oct [1] $end
$var wire 1 H ww_oct [0] $end
$var wire 1 I ww_b $end
$var wire 1 J \~QUARTUS_CREATED_ADC1~_CHSEL_bus\ [4] $end
$var wire 1 K \~QUARTUS_CREATED_ADC1~_CHSEL_bus\ [3] $end
$var wire 1 L \~QUARTUS_CREATED_ADC1~_CHSEL_bus\ [2] $end
$var wire 1 M \~QUARTUS_CREATED_ADC1~_CHSEL_bus\ [1] $end
$var wire 1 N \~QUARTUS_CREATED_ADC1~_CHSEL_bus\ [0] $end
$var wire 1 O \~QUARTUS_CREATED_ADC2~_CHSEL_bus\ [4] $end
$var wire 1 P \~QUARTUS_CREATED_ADC2~_CHSEL_bus\ [3] $end
$var wire 1 Q \~QUARTUS_CREATED_ADC2~_CHSEL_bus\ [2] $end
$var wire 1 R \~QUARTUS_CREATED_ADC2~_CHSEL_bus\ [1] $end
$var wire 1 S \~QUARTUS_CREATED_ADC2~_CHSEL_bus\ [0] $end
$var wire 1 T \clk~inputclkctrl_INCLK_bus\ [3] $end
$var wire 1 U \clk~inputclkctrl_INCLK_bus\ [2] $end
$var wire 1 V \clk~inputclkctrl_INCLK_bus\ [1] $end
$var wire 1 W \clk~inputclkctrl_INCLK_bus\ [0] $end
$var wire 1 X \~QUARTUS_CREATED_GND~I_combout\ $end
$var wire 1 Y \~QUARTUS_CREATED_UNVM~~busy\ $end
$var wire 1 Z \~QUARTUS_CREATED_ADC1~~eoc\ $end
$var wire 1 [ \~QUARTUS_CREATED_ADC2~~eoc\ $end
$var wire 1 \ \octava[0]~output_o\ $end
$var wire 1 ] \octava[1]~output_o\ $end
$var wire 1 ^ \octava[2]~output_o\ $end
$var wire 1 _ \octava[3]~output_o\ $end
$var wire 1 ` \oct[0]~output_o\ $end
$var wire 1 a \oct[1]~output_o\ $end
$var wire 1 b \oct[2]~output_o\ $end
$var wire 1 c \oct[3]~output_o\ $end
$var wire 1 d \oct[4]~output_o\ $end
$var wire 1 e \oct[5]~output_o\ $end
$var wire 1 f \oct[6]~output_o\ $end
$var wire 1 g \oct[7]~output_o\ $end
$var wire 1 h \b~output_o\ $end
$var wire 1 i \clk~input_o\ $end
$var wire 1 j \clk~inputclkctrl_outclk\ $end
$var wire 1 k \b_r~input_o\ $end
$var wire 1 l \b_b~input_o\ $end
$var wire 1 m \cnt[0]~3_combout\ $end
$var wire 1 n \cnt[1]~5_cout\ $end
$var wire 1 o \cnt[1]~6_combout\ $end
$var wire 1 p \cnt~8_combout\ $end
$var wire 1 q \cnt[1]~7\ $end
$var wire 1 r \cnt[2]~9_combout\ $end
$var wire 1 s \cnt[2]~10\ $end
$var wire 1 t \cnt[3]~11_combout\ $end
$var wire 1 u \Mux7~0_combout\ $end
$var wire 1 v \Mux6~0_combout\ $end
$var wire 1 w \Mux5~0_combout\ $end
$var wire 1 x \Mux4~0_combout\ $end
$var wire 1 y \Mux3~0_combout\ $end
$var wire 1 z \Mux2~0_combout\ $end
$var wire 1 { \Mux1~0_combout\ $end
$var wire 1 | \Mux0~0_combout\ $end
$var wire 1 } cnt [3] $end
$var wire 1 ~ cnt [2] $end
$var wire 1 !! cnt [1] $end
$var wire 1 "! cnt [0] $end
$upscope $end
$upscope $end
$enddefinitions $end
#0
$dumpvars
1!
0"
0#
0$
01
12
x3
14
15
16
17
18
19
0:
0;
0<
1I
0X
zY
zZ
z[
0\
0]
0^
0_
1`
0a
0b
0c
0d
0e
0f
0g
1h
0i
0j
0k
0l
1m
0n
0o
1p
1q
0r
0s
0t
1u
0v
0w
0x
0y
0z
0{
0|
0-
0.
0/
00
0%
0&
0'
0(
0)
0*
0+
1,
0=
0>
0?
0@
0A
0B
0C
0D
0E
0F
0G
1H
0}
0~
0!!
0"!
1T
1U
1V
0W
0J
0K
0L
0M
0N
0O
0P
0Q
0R
0S
$end
#5000
1$
1<
1i
1W
1j
1"!
1\
0m
1n
0u
1v
1@
1a
0`
1o
10
1G
0H
0,
1+
#10000
0$
0<
0i
0W
0j
#15000
1$
1<
1i
1W
1j
0"!
1!!
1]
0\
0o
0q
1m
0n
0v
1w
1?
0@
1b
0a
1o
1q
1r
00
1/
1F
0G
0r
0+
1*
#20000
0$
0<
0i
0W
0j
#25000
1$
1<
1i
1W
1j
1"!
1\
0m
1n
0w
1x
1@
1c
0b
0o
0q
10
1E
0F
1r
0*
1)
#30000
0$
0<
0i
0W
0j
#35000
1$
1<
1i
1W
1j
0"!
0!!
1~
1^
0]
0\
0r
1s
1o
1q
1m
0n
0x
1y
1>
0?
0@
1d
0c
0o
1r
0s
1t
00
0/
1.
1D
0E
0t
0)
1(
#40000
0$
0<
0i
0W
0j
#45000
1$
1<
1i
1W
1j
1"!
1\
0m
1n
0y
1z
1@
1e
0d
1o
10
1C
0D
0(
1'
#50000
0$
0<
0i
0W
0j
#55000
1$
1<
1i
1W
1j
0"!
1!!
1]
0\
0o
0q
1m
0n
0z
1{
1?
0@
1f
0e
1o
1q
0r
1s
00
1/
1B
0C
1t
1r
0s
0'
1&
0t
#60000
0$
0<
0i
0W
0j
#65000
1$
1<
1i
1W
1j
1"!
1\
0m
1n
0{
1|
1@
1g
0f
0o
0q
10
1A
0B
0r
1s
0&
1%
1t
#70000
0$
0<
0i
0W
0j
#75000
1$
1<
1i
1W
1j
0"!
0!!
0~
1}
1_
0^
0]
0\
0t
1r
0s
1o
1q
1m
0n
1u
1v
1w
1x
1y
1z
1{
1=
0>
0?
0@
1f
1e
1d
1c
1b
1a
1`
0o
0r
1t
00
0/
0.
1-
1B
1C
1D
1E
1F
1G
1H
1,
1+
1*
1)
1(
1'
1&
#80000
0$
1#
0<
1:
1k
0i
0W
0j
#85000
1$
1<
1i
1W
1j
1"!
1\
0m
1n
0u
0v
0w
0x
0y
0z
0{
1@
0f
0e
0d
0c
0b
0a
0`
1o
10
0B
0C
0D
0E
0F
0G
0H
0,
0+
0*
0)
0(
0'
0&
#90000
0$
0<
0i
0W
0j
#95000
1$
1<
1i
1W
1j
0"!
1!!
1]
0\
0o
0q
1m
0n
1?
0@
1o
1q
1r
00
1/
0r
#100000
0$
0<
0i
0W
0j
#105000
1$
1<
1i
1W
1j
1"!
1\
0m
1n
1@
0o
0q
10
1r
#110000
0$
0<
0i
0W
0j
#115000
1$
1<
1i
1W
1j
0"!
0!!
1~
1^
0]
0\
0r
1s
1o
1q
1m
0n
1>
0?
0@
0o
1r
0s
0t
00
0/
1.
1t
#120000
0$
0<
0i
0W
0j
#125000
1$
1<
1i
1W
1j
1"!
1\
0m
1n
1@
1o
10
#130000
0$
0<
0i
0W
0j
#135000
1$
1<
1i
1W
1j
0"!
1!!
1]
0\
0o
0q
1m
0n
1?
0@
1o
1q
0r
1s
00
1/
0t
1r
0s
1t
#140000
0$
0<
0i
0W
0j
#145000
1$
1<
1i
1W
1j
1"!
1\
0m
1n
1@
0o
0q
10
0r
1s
0t
#150000
0$
0<
0i
0W
0j
#155000
1$
1<
1i
1W
1j
0"!
0!!
0~
0}
0_
0^
0]
0\
1t
1r
0s
1o
1q
1m
0n
1u
0|
0=
0>
0?
0@
0g
1`
0o
0r
0t
00
0/
0.
0-
0A
1H
1,
0%
#160000
0$
0<
0i
0W
0j
#165000
1$
1<
1i
1W
1j
1"!
1\
0m
1n
0u
1v
1@
1a
0`
1o
10
1G
0H
0,
1+
#170000
0$
0<
0i
0W
0j
#175000
1$
1<
1i
1W
1j
0"!
1!!
1]
0\
0o
0q
1m
0n
0v
1w
1?
0@
1b
0a
1o
1q
1r
00
1/
1F
0G
0r
0+
1*
#180000
0$
0<
0i
0W
0j
#185000
1$
1<
1i
1W
1j
1"!
1\
0m
1n
0w
1x
1@
1c
0b
0o
0q
10
1E
0F
1r
0*
1)
#190000
0$
0#
0<
0:
0k
0i
0W
0j
#195000
1$
1<
1i
1W
1j
0"!
0!!
1~
1^
0]
0\
0r
1s
1o
1q
1m
0n
0x
1y
1>
0?
0@
1d
0c
0o
1r
0s
1t
00
0/
1.
1D
0E
0t
0)
1(
#200000
0$
0<
0i
0W
0j
#205000
1$
1<
1i
1W
1j
1"!
1\
0m
1n
0y
1z
1@
1e
0d
1o
10
1C
0D
0(
1'
#210000
0$
0<
0i
0W
0j
#215000
1$
1<
1i
1W
1j
0"!
1!!
1]
0\
0o
0q
1m
0n
0z
1{
1?
0@
1f
0e
1o
1q
0r
1s
00
1/
1B
0C
1t
1r
0s
0'
1&
0t
#220000
0$
0<
0i
0W
0j
#225000
1$
1<
1i
1W
1j
1"!
1\
0m
1n
0{
1|
1@
1g
0f
0o
0q
10
1A
0B
0r
1s
0&
1%
1t
#230000
0$
0<
0i
0W
0j
#235000
1$
1<
1i
1W
1j
0"!
0!!
0~
1}
1_
0^
0]
0\
0t
1r
0s
1o
1q
1m
0n
1u
1v
1w
1x
1y
1z
1{
1=
0>
0?
0@
1f
1e
1d
1c
1b
1a
1`
0o
0r
1t
00
0/
0.
1-
1B
1C
1D
1E
1F
1G
1H
1,
1+
1*
1)
1(
1'
1&
#240000
0$
0<
0i
0W
0j
#245000
1$
1<
1i
1W
1j
1"!
1\
0m
1n
0u
0v
0w
0x
0y
0z
0{
1@
0f
0e
0d
0c
0b
0a
0`
1o
10
0B
0C
0D
0E
0F
0G
0H
0,
0+
0*
0)
0(
0'
0&
#250000
0$
0<
0i
0W
0j
#255000
1$
1<
1i
1W
1j
0"!
1!!
1]
0\
0o
0q
1m
0n
1?
0@
1o
1q
1r
00
1/
0r
#260000
0$
0<
0i
0W
0j
#265000
1$
1<
1i
1W
1j
1"!
1\
0m
1n
1@
0o
0q
10
1r
#270000
0$
0<
0i
0W
0j
#275000
1$
1<
1i
1W
1j
0"!
0!!
1~
1^
0]
0\
0r
1s
1o
1q
1m
0n
1>
0?
0@
0o
1r
0s
0t
00
0/
1.
1t
#280000
0$
1"
0<
1;
1l
0i
0W
1o
0r
1s
0t
1t
0j
#285000
1$
1<
1i
1W
1j
1"!
1!!
0~
0^
1]
1\
1r
0s
0o
0q
0m
1n
0>
1?
1@
1o
0r
1s
0t
10
1/
0.
1t
#290000
0$
0<
0i
0W
0j
#295000
1$
1<
1i
1W
1j
0"!
0\
1m
0n
0@
0o
00
#300000
0$
0<
0i
0W
0j
#305000
1$
1<
1i
1W
1j
1"!
0!!
0]
1\
1o
1q
0m
1n
0?
1@
0o
0q
1r
0s
10
0/
0t
0r
1s
1t
#310000
0$
0<
0i
0W
0j
#315000
1$
1<
1i
1W
1j
0"!
0\
1m
0n
1u
1v
1w
1x
1y
1z
1{
0@
1f
1e
1d
1c
1b
1a
1`
1o
1q
00
1B
1C
1D
1E
1F
1G
1H
1r
0s
1,
1+
1*
1)
1(
1'
1&
0t
#320000
0$
0<
0i
0W
0j
#325000
1$
1<
1i
1W
1j
1"!
1!!
1~
0}
0_
1^
1]
1\
1t
0r
1s
0o
0q
0m
1n
0u
0v
0w
0x
0y
0z
0{
0=
1>
1?
1@
0f
0e
0d
0c
0b
0a
0`
1o
1r
0t
10
1/
1.
0-
0B
0C
0D
0E
0F
0G
0H
0,
0+
0*
0)
0(
0'
0&
#330000
0$
0<
0i
0W
0j
#335000
1$
1<
1i
1W
1j
0"!
0\
1m
0n
1{
0|
0@
0g
1f
0o
00
0A
1B
1&
0%
#340000
0$
0<
0i
0W
0j
#345000
1$
1<
1i
1W
1j
1"!
0!!
0]
1\
1o
1q
0m
1n
1z
0{
0?
1@
0f
1e
0o
0q
0r
10
0/
0B
1C
1r
1'
0&
#350000
0$
0<
0i
0W
0j
#355000
1$
1<
1i
1W
1j
0"!
0\
1m
0n
1y
0z
0@
0e
1d
1o
1q
00
0C
1D
0r
1(
0'
#360000
0$
0<
0i
0W
0j
#365000
1$
1<
1i
1W
1j
1"!
1!!
0~
0^
1]
1\
1r
0s
0o
0q
0m
1n
1x
0y
0>
1?
1@
0d
1c
1o
0r
1s
1t
10
1/
0.
0D
1E
0t
1)
0(
#370000
0$
0<
0i
0W
0j
#375000
1$
1<
1i
1W
1j
0"!
0\
1m
0n
1w
0x
0@
0c
1b
0o
00
0E
1F
1*
0)
#380000
0$
0<
0i
0W
0j
#385000
1$
1<
1i
1W
1j
1"!
0!!
0]
1\
1o
1q
0m
1n
1v
0w
0?
1@
0b
1a
0o
0q
1r
0s
10
0/
0F
1G
1t
0r
1s
1+
0*
0t
#390000
0$
0<
0i
0W
0j
#395000
1$
1<
1i
1W
1j
0"!
0\
1m
0n
1u
0v
0@
0a
1`
1o
1q
00
0G
1H
1r
0s
1,
0+
1t
#400000
0$
0<
0i
0W
0j
#405000
1$
1<
1i
1W
1j
1"!
1!!
1~
1}
1_
1^
1]
1\
0t
0r
1s
0o
0q
0m
1n
0u
1|
1=
1>
1?
1@
1g
0`
1o
1r
1t
10
1/
1.
1-
1A
0H
0,
1%
#410000
0$
0<
0i
0W
0j
#415000
1$
1<
1i
1W
1j
0"!
0\
1m
0n
0@
0o
00
#420000
0$
0<
0i
0W
0j
#425000
1$
1<
1i
1W
1j
1"!
0!!
0]
1\
1o
1q
0m
1n
0?
1@
0o
0q
0r
10
0/
1r
#430000
0$
0<
0i
0W
0j
#435000
1$
1<
1i
1W
1j
0"!
0\
1m
0n
0@
1o
1q
00
0r
#440000
0$
0<
0i
0W
0j
#445000
1$
1<
1i
1W
1j
1"!
1!!
0~
0^
1]
1\
1r
0s
0o
0q
0m
1n
0>
1?
1@
1o
0r
1s
0t
10
1/
0.
1t
#450000
0$
0<
0i
0W
0j
#455000
1$
1<
1i
1W
1j
0"!
0\
1m
0n
0@
0o
00
#460000
0$
0<
0i
0W
0j
#465000
1$
1<
1i
1W
1j
1"!
0!!
0]
1\
1o
1q
0m
1n
0?
1@
0o
0q
1r
0s
10
0/
0t
0r
1s
1t
#470000
0$
0<
0i
0W
0j
#475000
1$
1<
1i
1W
1j
0"!
0\
1m
0n
1u
1v
1w
1x
1y
1z
1{
0@
1f
1e
1d
1c
1b
1a
1`
1o
1q
00
1B
1C
1D
1E
1F
1G
1H
1r
0s
1,
1+
1*
1)
1(
1'
1&
0t
#480000
0$
0<
0i
0W
0j
#485000
1$
1<
1i
1W
1j
1"!
1!!
1~
0}
0_
1^
1]
1\
1t
0r
1s
0o
0q
0m
1n
0u
0v
0w
0x
0y
0z
0{
0=
1>
1?
1@
0f
0e
0d
0c
0b
0a
0`
1o
1r
0t
10
1/
1.
0-
0B
0C
0D
0E
0F
0G
0H
0,
0+
0*
0)
0(
0'
0&
#490000
0$
0<
0i
0W
0j
#495000
1$
1<
1i
1W
1j
0"!
0\
1m
0n
1{
0|
0@
0g
1f
0o
00
0A
1B
1&
0%
#500000
0$
0<
0i
0W
0j
#505000
1$
1<
1i
1W
1j
1"!
0!!
0]
1\
1o
1q
0m
1n
1z
0{
0?
1@
0f
1e
0o
0q
0r
10
0/
0B
1C
1r
1'
0&
#510000
0$
0<
0i
0W
0j
#515000
1$
1<
1i
1W
1j
0"!
0\
1m
0n
1y
0z
0@
0e
1d
1o
1q
00
0C
1D
0r
1(
0'
#520000
0$
0<
0i
0W
0j
#525000
1$
1<
1i
1W
1j
1"!
1!!
0~
0^
1]
1\
1r
0s
0o
0q
0m
1n
1x
0y
0>
1?
1@
0d
1c
1o
0r
1s
1t
10
1/
0.
0D
1E
0t
1)
0(
#530000
0$
0<
0i
0W
0j
#535000
1$
1<
1i
1W
1j
0"!
0\
1m
0n
1w
0x
0@
0c
1b
0o
00
0E
1F
1*
0)
#540000
0$
0<
0i
0W
0j
#545000
1$
1<
1i
1W
1j
1"!
0!!
0]
1\
1o
1q
0m
1n
1v
0w
0?
1@
0b
1a
0o
0q
1r
0s
10
0/
0F
1G
1t
0r
1s
1+
0*
0t
#550000
0$
0<
0i
0W
0j
#555000
1$
1<
1i
1W
1j
0"!
0\
1m
0n
1u
0v
0@
0a
1`
1o
1q
00
0G
1H
1r
0s
1,
0+
1t
#560000
0$
0<
0i
0W
0j
#565000
1$
1<
1i
1W
1j
1"!
1!!
1~
1}
1_
1^
1]
1\
0t
0r
1s
0o
0q
0m
1n
0u
1|
1=
1>
1?
1@
1g
0`
1o
1r
1t
10
1/
1.
1-
1A
0H
0,
1%
#570000
0$
0<
0i
0W
0j
#575000
1$
1<
1i
1W
1j
0"!
0\
1m
0n
0@
0o
00
#580000
0$
0<
0i
0W
0j
#585000
1$
1<
1i
1W
1j
1"!
0!!
0]
1\
1o
1q
0m
1n
0?
1@
0o
0q
0r
10
0/
1r
#590000
0$
0<
0i
0W
0j
#595000
1$
1<
1i
1W
1j
0"!
0\
1m
0n
0@
1o
1q
00
0r
#600000
0$
0<
0i
0W
0j
#605000
1$
1<
1i
1W
1j
1"!
1!!
0~
0^
1]
1\
1r
0s
0o
0q
0m
1n
0>
1?
1@
1o
0r
1s
0t
10
1/
0.
1t
#610000
0$
0<
0i
0W
0j
#615000
1$
1<
1i
1W
1j
0"!
0\
1m
0n
0@
0o
00
#620000
0$
0<
0i
0W
0j
#625000
1$
1<
1i
1W
1j
1"!
0!!
0]
1\
1o
1q
0m
1n
0?
1@
0o
0q
1r
0s
10
0/
0t
0r
1s
1t
#630000
0$
0<
0i
0W
0j
#635000
1$
1<
1i
1W
1j
0"!
0\
1m
0n
1u
1v
1w
1x
1y
1z
1{
0@
1f
1e
1d
1c
1b
1a
1`
1o
1q
00
1B
1C
1D
1E
1F
1G
1H
1r
0s
1,
1+
1*
1)
1(
1'
1&
0t
#640000
0$
0<
0i
0W
0j
#645000
1$
1<
1i
1W
1j
1"!
1!!
1~
0}
0_
1^
1]
1\
1t
0r
1s
0o
0q
0m
1n
0u
0v
0w
0x
0y
0z
0{
0=
1>
1?
1@
0f
0e
0d
0c
0b
0a
0`
1o
1r
0t
10
1/
1.
0-
0B
0C
0D
0E
0F
0G
0H
0,
0+
0*
0)
0(
0'
0&
#650000
0$
0<
0i
0W
0j
#655000
1$
1<
1i
1W
1j
0"!
0\
1m
0n
1{
0|
0@
0g
1f
0o
00
0A
1B
1&
0%
#660000
0$
0<
0i
0W
0j
#665000
1$
1<
1i
1W
1j
1"!
0!!
0]
1\
1o
1q
0m
1n
1z
0{
0?
1@
0f
1e
0o
0q
0r
10
0/
0B
1C
1r
1'
0&
#670000
0$
0<
0i
0W
0j
#675000
1$
1<
1i
1W
1j
0"!
0\
1m
0n
1y
0z
0@
0e
1d
1o
1q
00
0C
1D
0r
1(
0'
#680000
0$
0<
0i
0W
0j
#685000
1$
1<
1i
1W
1j
1"!
1!!
0~
0^
1]
1\
1r
0s
0o
0q
0m
1n
1x
0y
0>
1?
1@
0d
1c
1o
0r
1s
1t
10
1/
0.
0D
1E
0t
1)
0(
#690000
0$
0<
0i
0W
0j
#695000
1$
1<
1i
1W
1j
0"!
0\
1m
0n
1w
0x
0@
0c
1b
0o
00
0E
1F
1*
0)
#700000
0$
0<
0i
0W
0j
#705000
1$
1<
1i
1W
1j
1"!
0!!
0]
1\
1o
1q
0m
1n
1v
0w
0?
1@
0b
1a
0o
0q
1r
0s
10
0/
0F
1G
1t
0r
1s
1+
0*
0t
#710000
0$
0<
0i
0W
0j
#715000
1$
1<
1i
1W
1j
0"!
0\
1m
0n
1u
0v
0@
0a
1`
1o
1q
00
0G
1H
1r
0s
1,
0+
1t
#720000
0$
0<
0i
0W
0j
#725000
1$
1<
1i
1W
1j
1"!
1!!
1~
1}
1_
1^
1]
1\
0t
0r
1s
0o
0q
0m
1n
0u
1|
1=
1>
1?
1@
1g
0`
1o
1r
1t
10
1/
1.
1-
1A
0H
0,
1%
#730000
0$
0"
0<
0;
0l
0i
0W
0o
0r
0t
0j
#735000
1$
1<
1i
1W
1j
0"!
0!!
0~
0}
0_
0^
0]
0\
1t
1r
0s
1o
1q
1m
0n
1u
0|
0=
0>
0?
0@
0g
1`
0o
0r
0t
00
0/
0.
0-
0A
1H
1,
0%
#740000
0$
0<
0i
0W
0j
#745000
1$
1<
1i
1W
1j
1"!
1\
0m
1n
0u
1v
1@
1a
0`
1o
10
1G
0H
0,
1+
#750000
0$
0<
0i
0W
0j
#755000
1$
1<
1i
1W
1j
0"!
1!!
1]
0\
0o
0q
1m
0n
0v
1w
1?
0@
1b
0a
1o
1q
1r
00
1/
1F
0G
0r
0+
1*
#760000
0$
0<
0i
0W
0j
#765000
1$
1<
1i
1W
1j
1"!
1\
0m
1n
0w
1x
1@
1c
0b
0o
0q
10
1E
0F
1r
0*
1)
#770000
0$
0<
0i
0W
0j
#775000
1$
1<
1i
1W
1j
0"!
0!!
1~
1^
0]
0\
0r
1s
1o
1q
1m
0n
0x
1y
1>
0?
0@
1d
0c
0o
1r
0s
1t
00
0/
1.
1D
0E
0t
0)
1(
#780000
0$
0<
0i
0W
0j
#785000
1$
1<
1i
1W
1j
1"!
1\
0m
1n
0y
1z
1@
1e
0d
1o
10
1C
0D
0(
1'
#790000
0$
0<
0i
0W
0j
#795000
1$
1<
1i
1W
1j
0"!
1!!
1]
0\
0o
0q
1m
0n
0z
1{
1?
0@
1f
0e
1o
1q
0r
1s
00
1/
1B
0C
1t
1r
0s
0'
1&
0t
#800000
0$
0<
0i
0W
0j
#805000
1$
1<
1i
1W
1j
1"!
1\
0m
1n
0{
1|
1@
1g
0f
0o
0q
10
1A
0B
0r
1s
0&
1%
1t
#810000
0$
0<
0i
0W
0j
#815000
1$
1<
1i
1W
1j
0"!
0!!
0~
1}
1_
0^
0]
0\
0t
1r
0s
1o
1q
1m
0n
1u
1v
1w
1x
1y
1z
1{
1=
0>
0?
0@
1f
1e
1d
1c
1b
1a
1`
0o
0r
1t
00
0/
0.
1-
1B
1C
1D
1E
1F
1G
1H
1,
1+
1*
1)
1(
1'
1&
#820000
0$
0<
0i
0W
0j
#825000
1$
1<
1i
1W
1j
1"!
1\
0m
1n
0u
0v
0w
0x
0y
0z
0{
1@
0f
0e
0d
0c
0b
0a
0`
1o
10
0B
0C
0D
0E
0F
0G
0H
0,
0+
0*
0)
0(
0'
0&
#830000
0$
0<
0i
0W
0j
#835000
1$
1<
1i
1W
1j
0"!
1!!
1]
0\
0o
0q
1m
0n
1?
0@
1o
1q
1r
00
1/
0r
#840000
0$
0<
0i
0W
0j
#845000
1$
1<
1i
1W
1j
1"!
1\
0m
1n
1@
0o
0q
10
1r
#850000
0$
0<
0i
0W
0j
#855000
1$
1<
1i
1W
1j
0"!
0!!
1~
1^
0]
0\
0r
1s
1o
1q
1m
0n
1>
0?
0@
0o
1r
0s
0t
00
0/
1.
1t
#860000
0$
0<
0i
0W
0j
#865000
1$
1<
1i
1W
1j
1"!
1\
0m
1n
1@
1o
10
#870000
0$
0<
0i
0W
0j
#875000
1$
1<
1i
1W
1j
0"!
1!!
1]
0\
0o
0q
1m
0n
1?
0@
1o
1q
0r
1s
00
1/
0t
1r
0s
1t
#880000
0$
0<
0i
0W
0j
#885000
1$
1<
1i
1W
1j
1"!
1\
0m
1n
1@
0o
0q
10
0r
1s
0t
#890000
0$
0<
0i
0W
0j
#895000
1$
1<
1i
1W
1j
0"!
0!!
0~
0}
0_
0^
0]
0\
1t
1r
0s
1o
1q
1m
0n
1u
0|
0=
0>
0?
0@
0g
1`
0o
0r
0t
00
0/
0.
0-
0A
1H
1,
0%
#900000
0$
0<
0i
0W
0j
#905000
1$
1<
1i
1W
1j
1"!
1\
0m
1n
0u
1v
1@
1a
0`
1o
10
1G
0H
0,
1+
#910000
0$
0<
0i
0W
0j
#915000
1$
1<
1i
1W
1j
0"!
1!!
1]
0\
0o
0q
1m
0n
0v
1w
1?
0@
1b
0a
1o
1q
1r
00
1/
1F
0G
0r
0+
1*
#920000
0$
0<
0i
0W
0j
#925000
1$
1<
1i
1W
1j
1"!
1\
0m
1n
0w
1x
1@
1c
0b
0o
0q
10
1E
0F
1r
0*
1)
#930000
0$
0<
0i
0W
0j
#935000
1$
1<
1i
1W
1j
0"!
0!!
1~
1^
0]
0\
0r
1s
1o
1q
1m
0n
0x
1y
1>
0?
0@
1d
0c
0o
1r
0s
1t
00
0/
1.
1D
0E
0t
0)
1(
#940000
0$
0<
0i
0W
0j
#945000
1$
1<
1i
1W
1j
1"!
1\
0m
1n
0y
1z
1@
1e
0d
1o
10
1C
0D
0(
1'
#950000
0$
0<
0i
0W
0j
#955000
1$
1<
1i
1W
1j
0"!
1!!
1]
0\
0o
0q
1m
0n
0z
1{
1?
0@
1f
0e
1o
1q
0r
1s
00
1/
1B
0C
1t
1r
0s
0'
1&
0t
#960000
0$
0<
0i
0W
0j
#965000
1$
1<
1i
1W
1j
1"!
1\
0m
1n
0{
1|
1@
1g
0f
0o
0q
10
1A
0B
0r
1s
0&
1%
1t
#970000
0$
0<
0i
0W
0j
#975000
1$
1<
1i
1W
1j
0"!
0!!
0~
1}
1_
0^
0]
0\
0t
1r
0s
1o
1q
1m
0n
1u
1v
1w
1x
1y
1z
1{
1=
0>
0?
0@
1f
1e
1d
1c
1b
1a
1`
0o
0r
1t
00
0/
0.
1-
1B
1C
1D
1E
1F
1G
1H
1,
1+
1*
1)
1(
1'
1&
#980000
0$
0<
0i
0W
0j
#985000
1$
1<
1i
1W
1j
1"!
1\
0m
1n
0u
0v
0w
0x
0y
0z
0{
1@
0f
0e
0d
0c
0b
0a
0`
1o
10
0B
0C
0D
0E
0F
0G
0H
0,
0+
0*
0)
0(
0'
0&
#990000
0$
0<
0i
0W
0j
#995000
1$
1<
1i
1W
1j
0"!
1!!
1]
0\
0o
0q
1m
0n
1?
0@
1o
1q
1r
00
1/
0r
