dac_wave/simulation/qsim/dac_wave.msim.vcd
$comment
	File created using the following command:
		vcd file dac_wave.msim.vcd -direction
$end
$date
	Thu Jan 11 10:10:30 2024
$end
$version
	ModelSim Version 10.5b
$end
$timescale
	1ps
$end

$scope module dac_wave_vhd_vec_tst $end
$var wire 1 ! clk $end
$var wire 1 " dout [7] $end
$var wire 1 # dout [6] $end
$var wire 1 $ dout [5] $end
$var wire 1 % dout [4] $end
$var wire 1 & dout [3] $end
$var wire 1 ' dout [2] $end
$var wire 1 ( dout [1] $end
$var wire 1 ) dout [0] $end

$scope module i1 $end
$var wire 1 * gnd $end
$var wire 1 + vcc $end
$var wire 1 , unknown $end
$var wire 1 - devoe $end
$var wire 1 . devclrn $end
$var wire 1 / devpor $end
$var wire 1 0 ww_devoe $end
$var wire 1 1 ww_devclrn $end
$var wire 1 2 ww_devpor $end
$var wire 1 3 ww_clk $end
$var wire 1 4 ww_dout [7] $end
$var wire 1 5 ww_dout [6] $end
$var wire 1 6 ww_dout [5] $end
$var wire 1 7 ww_dout [4] $end
$var wire 1 8 ww_dout [3] $end
$var wire 1 9 ww_dout [2] $end
$var wire 1 : ww_dout [1] $end
$var wire 1 ; ww_dout [0] $end
$var wire 1 < \~QUARTUS_CREATED_ADC1~_CHSEL_bus\ [4] $end
$var wire 1 = \~QUARTUS_CREATED_ADC1~_CHSEL_bus\ [3] $end
$var wire 1 > \~QUARTUS_CREATED_ADC1~_CHSEL_bus\ [2] $end
$var wire 1 ? \~QUARTUS_CREATED_ADC1~_CHSEL_bus\ [1] $end
$var wire 1 @ \~QUARTUS_CREATED_ADC1~_CHSEL_bus\ [0] $end
$var wire 1 A \~QUARTUS_CREATED_ADC2~_CHSEL_bus\ [4] $end
$var wire 1 B \~QUARTUS_CREATED_ADC2~_CHSEL_bus\ [3] $end
$var wire 1 C \~QUARTUS_CREATED_ADC2~_CHSEL_bus\ [2] $end
$var wire 1 D \~QUARTUS_CREATED_ADC2~_CHSEL_bus\ [1] $end
$var wire 1 E \~QUARTUS_CREATED_ADC2~_CHSEL_bus\ [0] $end
$var wire 1 F \clk~inputclkctrl_INCLK_bus\ [3] $end
$var wire 1 G \clk~inputclkctrl_INCLK_bus\ [2] $end
$var wire 1 H \clk~inputclkctrl_INCLK_bus\ [1] $end
$var wire 1 I \clk~inputclkctrl_INCLK_bus\ [0] $end
$var wire 1 J \~QUARTUS_CREATED_GND~I_combout\ $end
$var wire 1 K \~QUARTUS_CREATED_UNVM~~busy\ $end
$var wire 1 L \~QUARTUS_CREATED_ADC1~~eoc\ $end
$var wire 1 M \~QUARTUS_CREATED_ADC2~~eoc\ $end
$var wire 1 N \dout[0]~output_o\ $end
$var wire 1 O \dout[1]~output_o\ $end
$var wire 1 P \dout[2]~output_o\ $end
$var wire 1 Q \dout[3]~output_o\ $end
$var wire 1 R \dout[4]~output_o\ $end
$var wire 1 S \dout[5]~output_o\ $end
$var wire 1 T \dout[6]~output_o\ $end
$var wire 1 U \dout[7]~output_o\ $end
$var wire 1 V \clk~input_o\ $end
$var wire 1 W \clk~inputclkctrl_outclk\ $end
$var wire 1 X \cnt[0]~8_combout\ $end
$var wire 1 Y \cnt[0]~9\ $end
$var wire 1 Z \cnt[1]~11\ $end
$var wire 1 [ \cnt[2]~12_combout\ $end
$var wire 1 \ \cnt[2]~13\ $end
$var wire 1 ] \cnt[3]~14_combout\ $end
$var wire 1 ^ \cnt[3]~15\ $end
$var wire 1 _ \cnt[4]~16_combout\ $end
$var wire 1 ` \cnt[4]~17\ $end
$var wire 1 a \cnt[5]~18_combout\ $end
$var wire 1 b \cnt[5]~19\ $end
$var wire 1 c \cnt[6]~20_combout\ $end
$var wire 1 d \u_d~2_combout\ $end
$var wire 1 e \u_d~1_combout\ $end
$var wire 1 f \cnt[6]~21\ $end
$var wire 1 g \cnt[7]~22_combout\ $end
$var wire 1 h \u_d~0_combout\ $end
$var wire 1 i \u_d~3_combout\ $end
$var wire 1 j \u_d~q\ $end
$var wire 1 k \cnt[1]~10_combout\ $end
$var wire 1 l cnt [7] $end
$var wire 1 m cnt [6] $end
$var wire 1 n cnt [5] $end
$var wire 1 o cnt [4] $end
$var wire 1 p cnt [3] $end
$var wire 1 q cnt [2] $end
$var wire 1 r cnt [1] $end
$var wire 1 s cnt [0] $end
$upscope $end
$upscope $end
$enddefinitions $end
#0
$dumpvars
0!
0*
1+
x,
1-
1.
1/
10
11
12
03
0J
zK
zL
zM
0N
0O
0P
0Q
0R
0S
0T
0U
0V
0W
1X
0Y
1Z
0[
0\
0]
1^
0_
0`
0a
1b
0c
0d
0e
0f
0g
0h
0i
0j
0k
0"
0#
0$
0%
0&
0'
0(
0)
04
05
06
07
08
09
0:
0;
0l
0m
0n
0o
0p
0q
0r
0s
1F
1G
1H
0I
0<
0=
0>
0?
0@
0A
0B
0C
0D
0E
$end
#2500
1!
13
1V
1I
1W
1s
1N
0X
1Y
1;
1k
1)
#5000
0!
03
0V
0I
0W
#7500
1!
13
1V
1I
1W
0s
1r
1O
0N
0k
0Z
1X
0Y
1:
0;
1k
1Z
1[
0)
1(
0[
#10000
0!
03
0V
0I
0W
#12500
1!
13
1V
1I
1W
1s
1N
0X
1Y
1;
0k
0Z
1)
1[
#15000
0!
03
0V
0I
0W
#17500
1!
13
1V
1I
1W
0s
1q
0r
0O
1P
0N
1k
1Z
0[
1\
1X
0Y
0:
19
0;
0k
1]
1[
0\
0)
0(
1'
0]
#20000
0!
03
0V
0I
0W
#22500
1!
13
1V
1I
1W
1s
1N
0X
1Y
1;
1k
1)
#25000
0!
03
0V
0I
0W
#27500
1!
13
1V
1I
1W
0s
1r
1O
0N
0k
0Z
1X
0Y
1:
0;
1k
1Z
0[
1\
0)
1(
1]
1[
0\
0]
#30000
0!
03
0V
0I
0W
#32500
1!
13
1V
1I
1W
1s
1N
0X
1Y
1;
0k
0Z
1)
0[
1\
1]
#35000
0!
03
0V
0I
0W
#37500
1!
13
1V
1I
1W
0s
0q
1p
0r
0O
1Q
0P
0N
1k
1Z
0]
0^
1[
0\
1X
0Y
0:
18
09
0;
0k
1]
1^
1_
0[
0)
0(
0'
1&
0_
#40000
0!
03
0V
0I
0W
#42500
1!
13
1V
1I
1W
1s
1N
0X
1Y
1;
1k
1)
#45000
0!
03
0V
0I
0W
#47500
1!
13
1V
1I
1W
0s
1r
1O
0N
0k
0Z
1X
0Y
1:
0;
1k
1Z
1[
0)
1(
0[
#50000
0!
03
0V
0I
0W
#52500
1!
13
1V
1I
1W
1s
1N
0X
1Y
1;
0k
0Z
1)
1[
#55000
0!
03
0V
0I
0W
#57500
1!
13
1V
1I
1W
0s
1q
0r
0O
1P
0N
1k
1Z
0[
1\
1X
0Y
0:
19
0;
0k
0]
0^
1[
0\
0)
0(
1'
1]
1^
1_
0_
#60000
0!
03
0V
0I
0W
#62500
1!
13
1V
1I
1W
1s
1N
0X
1Y
1;
1k
1)
#65000
0!
03
0V
0I
0W
#67500
1!
13
1V
1I
1W
0s
1r
1O
0N
0k
0Z
1X
0Y
1:
0;
1k
1Z
0[
1\
0)
1(
0]
0^
1[
0\
1]
1^
1_
0_
#70000
0!
03
0V
0I
0W
#72500
1!
13
1V
1I
1W
1s
1N
0X
1Y
1;
0k
0Z
1)
0[
1\
0]
0^
1_
#75000
0!
03
0V
0I
0W
#77500
1!
13
1V
1I
1W
0s
0q
0p
1o
0r
0O
1R
0Q
0P
0N
1k
1Z
0_
1`
1]
1^
1[
0\
1h
1X
0Y
0:
17
08
09
0;
0k
0]
1_
0`
1a
0[
0)
0(
0'
0&
1%
0a
#80000
0!
03
0V
0I
0W
#82500
1!
13
1V
1I
1W
1s
1N
0X
1Y
1;
1k
1)
#85000
0!
03
0V
0I
0W
#87500
1!
13
1V
1I
1W
0s
1r
1O
0N
0k
0Z
1X
0Y
1:
0;
1k
1Z
1[
0)
1(
0[
#90000
0!
03
0V
0I
0W
#92500
1!
13
1V
1I
1W
1s
1N
0X
1Y
1;
0k
0Z
1)
1[
#95000
0!
03
0V
0I
0W
#97500
1!
13
1V
1I
1W
0s
1q
0r
0O
1P
0N
1k
1Z
0[
1\
0h
1X
0Y
0:
19
0;
0k
1]
1[
0\
0)
0(
1'
0]
#100000
0!
03
0V
0I
0W
#102500
1!
13
1V
1I
1W
1s
1N
0X
1Y
1;
1k
1)
#105000
0!
03
0V
0I
0W
#107500
1!
13
1V
1I
1W
0s
1r
1O
0N
0k
0Z
1X
0Y
1:
0;
1k
1Z
0[
1\
0)
1(
1]
1[
0\
0]
#110000
0!
03
0V
0I
0W
#112500
1!
13
1V
1I
1W
1s
1N
0X
1Y
1;
0k
0Z
1)
0[
1\
1]
#115000
0!
03
0V
0I
0W
#117500
1!
13
1V
1I
1W
0s
0q
1p
0r
0O
1Q
0P
0N
1k
1Z
0]
0^
1[
0\
1h
1X
0Y
0:
18
09
0;
0k
1]
1^
0_
1`
0[
0)
0(
0'
1&
1a
1_
0`
0a
#120000
0!
03
0V
0I
0W
#122500
1!
13
1V
1I
1W
1s
1N
0X
1Y
1;
1k
1)
#125000
0!
03
0V
0I
0W
#127500
1!
13
1V
1I
1W
0s
1r
1O
0N
0k
0Z
1X
0Y
1:
0;
1k
1Z
1[
0)
1(
0[
#130000
0!
03
0V
0I
0W
#132500
1!
13
1V
1I
1W
1s
1N
0X
1Y
1;
0k
0Z
1)
1[
#135000
0!
03
0V
0I
0W
#137500
1!
13
1V
1I
1W
0s
1q
0r
0O
1P
0N
1k
1Z
0[
1\
0h
1X
0Y
0:
19
0;
0k
0]
0^
1[
0\
0)
0(
1'
1]
1^
0_
1`
1a
1_
0`
0a
#140000
0!
03
0V
0I
0W
#142500
1!
13
1V
1I
1W
1s
1N
0X
1Y
1;
1k
1)
#145000
0!
03
0V
0I
0W
#147500
1!
13
1V
1I
1W
0s
1r
1O
0N
0k
0Z
1X
0Y
1:
0;
1k
1Z
0[
1\
0)
1(
0]
0^
1[
0\
1]
1^
0_
1`
1a
1_
0`
0a
#150000
0!
03
0V
0I
0W
#152500
1!
13
1V
1I
1W
1s
1N
0X
1Y
1;
0k
0Z
1)
0[
1\
0]
0^
0_
1`
1a
#155000
0!
03
0V
0I
0W
#157500
1!
13
1V
1I
1W
0s
0q
0p
0o
1n
0r
0O
1S
0R
0Q
0P
0N
1k
1Z
0a
0b
1_
0`
1]
1^
1[
0\
1X
0Y
0:
16
07
08
09
0;
0k
0]
0_
1a
1b
1c
0[
0)
0(
0'
0&
0%
1$
0c
#160000
0!
03
0V
0I
0W
#162500
1!
13
1V
1I
1W
1s
1N
0X
1Y
1;
1k
1)
#165000
0!
03
0V
0I
0W
#167500
1!
13
1V
1I
1W
0s
1r
1O
0N
0k
0Z
1X
0Y
1:
0;
1k
1Z
1[
0)
1(
0[
#170000
0!
03
0V
0I
0W
#172500
1!
13
1V
1I
1W
1s
1N
0X
1Y
1;
0k
0Z
1)
1[
#175000
0!
03
0V
0I
0W
#177500
1!
13
1V
1I
1W
0s
1q
0r
0O
1P
0N
1k
1Z
0[
1\
1X
0Y
0:
19
0;
0k
1]
1[
0\
0)
0(
1'
0]
#180000
0!
03
0V
0I
0W
#182500
1!
13
1V
1I
1W
1s
1N
0X
1Y
1;
1k
1)
#185000
0!
03
0V
0I
0W
#187500
1!
13
1V
1I
1W
0s
1r
1O
0N
0k
0Z
1X
0Y
1:
0;
1k
1Z
0[
1\
0)
1(
1]
1[
0\
0]
#190000
0!
03
0V
0I
0W
#192500
1!
13
1V
1I
1W
1s
1N
0X
1Y
1;
0k
0Z
1)
0[
1\
1]
#195000
0!
03
0V
0I
0W
#197500
1!
13
1V
1I
1W
0s
0q
1p
0r
0O
1Q
0P
0N
1k
1Z
0]
0^
1[
0\
1X
0Y
0:
18
09
0;
0k
1]
1^
1_
0[
0)
0(
0'
1&
0_
#200000
0!
03
0V
0I
0W
#202500
1!
13
1V
1I
1W
1s
1N
0X
1Y
1;
1k
1)
#205000
0!
03
0V
0I
0W
#207500
1!
13
1V
1I
1W
0s
1r
1O
0N
0k
0Z
1X
0Y
1:
0;
1k
1Z
1[
0)
1(
0[
#210000
0!
03
0V
0I
0W
#212500
1!
13
1V
1I
1W
1s
1N
0X
1Y
1;
0k
0Z
1)
1[
#215000
0!
03
0V
0I
0W
#217500
1!
13
1V
1I
1W
0s
1q
0r
0O
1P
0N
1k
1Z
0[
1\
1e
1X
0Y
0:
19
0;
0k
0]
0^
1[
0\
0)
0(
1'
1]
1^
1_
0_
#220000
0!
03
0V
0I
0W
#222500
1!
13
1V
1I
1W
1s
1N
0X
1Y
1;
1k
1)
#225000
0!
03
0V
0I
0W
#227500
1!
13
1V
1I
1W
0s
1r
1O
0N
0k
0Z
1X
0Y
1:
0;
1k
1Z
0[
1\
0)
1(
0]
0^
1[
0\
1]
1^
1_
0_
#230000
0!
03
0V
0I
0W
#232500
1!
13
1V
1I
1W
1s
1N
0X
1Y
1;
0k
0Z
1)
0[
1\
0]
0^
1_
#235000
0!
03
0V
0I
0W
#237500
1!
13
1V
1I
1W
0s
0q
0p
1o
0r
0O
1R
0Q
0P
0N
1k
1Z
0_
1`
1]
1^
1[
0\
0e
1h
1X
0Y
0:
17
08
09
0;
0k
0]
1_
0`
0a
0b
0[
0)
0(
0'
0&
1%
1c
1a
1b
0c
#240000
0!
03
0V
0I
0W
#242500
1!
13
1V
1I
1W
1s
1N
0X
1Y
1;
1k
1)
#245000
0!
03
0V
0I
0W
#247500
1!
13
1V
1I
1W
0s
1r
1O
0N
0k
0Z
1X
0Y
1:
0;
1k
1Z
1[
0)
1(
0[
#250000
0!
03
0V
0I
0W
#252500
1!
13
1V
1I
1W
1s
1N
0X
1Y
1;
0k
0Z
1)
1[
#255000
0!
03
0V
0I
0W
#257500
1!
13
1V
1I
1W
0s
1q
0r
0O
1P
0N
1k
1Z
0[
1\
0h
1X
0Y
0:
19
0;
0k
1]
1[
0\
0)
0(
1'
0]
#260000
0!
03
0V
0I
0W
#262500
1!
13
1V
1I
1W
1s
1N
0X
1Y
1;
1k
1)
#265000
0!
03
0V
0I
0W
#267500
1!
13
1V
1I
1W
0s
1r
1O
0N
0k
0Z
1X
0Y
1:
0;
1k
1Z
0[
1\
0)
1(
1]
1[
0\
0]
#270000
0!
03
0V
0I
0W
#272500
1!
13
1V
1I
1W
1s
1N
0X
1Y
1;
0k
0Z
1)
0[
1\
1]
#275000
0!
03
0V
0I
0W
#277500
1!
13
1V
1I
1W
0s
0q
1p
0r
0O
1Q
0P
0N
1k
1Z
0]
0^
1[
0\
1h
1X
0Y
0:
18
09
0;
0k
1]
1^
0_
1`
0[
0)
0(
0'
1&
0a
0b
1_
0`
1a
1b
1c
0c
#280000
0!
03
0V
0I
0W
#282500
1!
13
1V
1I
1W
1s
1N
0X
1Y
1;
1k
1)
#285000
0!
03
0V
0I
0W
#287500
1!
13
1V
1I
1W
0s
1r
1O
0N
0k
0Z
1X
0Y
1:
0;
1k
1Z
1[
0)
1(
0[
#290000
0!
03
0V
0I
0W
#292500
1!
13
1V
1I
1W
1s
1N
0X
1Y
1;
0k
0Z
1)
1[
#295000
0!
03
0V
0I
0W
#297500
1!
13
1V
1I
1W
0s
1q
0r
0O
1P
0N
1k
1Z
0[
1\
1e
0h
1X
0Y
0:
19
0;
0k
0]
0^
1[
0\
0)
0(
1'
1]
1^
0_
1`
0a
0b
1_
0`
1a
1b
1c
0c
#300000
0!
03
0V
0I
0W
#302500
1!
13
1V
1I
1W
1s
1N
0X
1Y
1;
1k
1)
#305000
0!
03
0V
0I
0W
#307500
1!
13
1V
1I
1W
0s
1r
1O
0N
0k
0Z
1X
0Y
1:
0;
1k
1Z
0[
1\
0)
1(
0]
0^
1[
0\
1]
1^
0_
1`
0a
0b
1_
0`
1a
1b
1c
0c
#310000
0!
03
0V
0I
0W
#312500
1!
13
1V
1I
1W
1s
1N
0X
1Y
1;
0k
0Z
1)
0[
1\
0]
0^
0_
1`
0a
0b
1c
#315000
0!
03
0V
0I
0W
#317500
1!
13
1V
1I
1W
0s
0q
0p
0o
0n
1m
0r
0O
1T
0S
0R
0Q
0P
0N
1k
1Z
0c
1f
1a
1b
1_
0`
1]
1^
1[
0\
0e
1X
0Y
0:
15
06
07
08
09
0;
0k
0]
0_
0a
1c
0f
1g
0[
0)
0(
0'
0&
0%
0$
1#
0g
#320000
0!
03
0V
0I
0W
#322500
1!
13
1V
1I
1W
1s
1N
0X
1Y
1;
1k
1)
#325000
0!
03
0V
0I
0W
#327500
1!
13
1V
1I
1W
0s
1r
1O
0N
0k
0Z
1X
0Y
1:
0;
1k
1Z
1[
0)
1(
0[
#330000
0!
03
0V
0I
0W
#332500
1!
13
1V
1I
1W
1s
1N
0X
1Y
1d
1;
0k
0Z
1)
1[
#335000
0!
03
0V
0I
0W
#337500
1!
13
1V
1I
1W
0s
1q
0r
0O
1P
0N
1k
1Z
0[
1\
1X
0Y
0d
0:
19
0;
0k
1]
1[
0\
0)
0(
1'
0]
#340000
0!
03
0V
0I
0W
#342500
1!
13
1V
1I
1W
1s
1N
0X
1Y
1;
1k
1)
#345000
0!
03
0V
0I
0W
#347500
1!
13
1V
1I
1W
0s
1r
1O
0N
0k
0Z
1X
0Y
1:
0;
1k
1Z
0[
1\
0)
1(
1]
1[
0\
0]
#350000
0!
03
0V
0I
0W
#352500
1!
13
1V
1I
1W
1s
1N
0X
1Y
1d
1;
0k
0Z
1)
0[
1\
1]
#355000
0!
03
0V
0I
0W
#357500
1!
13
1V
1I
1W
0s
0q
1p
0r
0O
1Q
0P
0N
1k
1Z
0]
0^
1[
0\
1X
0Y
0d
0:
18
09
0;
0k
1]
1^
1_
0[
0)
0(
0'
1&
0_
#360000
0!
03
0V
0I
0W
#362500
1!
13
1V
1I
1W
1s
1N
0X
1Y
1;
1k
1)
#365000
0!
03
0V
0I
0W
#367500
1!
13
1V
1I
1W
0s
1r
1O
0N
0k
0Z
1X
0Y
1:
0;
1k
1Z
1[
0)
1(
0[
#370000
0!
03
0V
0I
0W
#372500
1!
13
1V
1I
1W
1s
1N
0X
1Y
1d
1;
0k
0Z
1)
1[
#375000
0!
03
0V
0I
0W
#377500
1!
13
1V
1I
1W
0s
1q
0r
0O
1P
0N
1k
1Z
0[
1\
1X
0Y
0d
0:
19
0;
0k
0]
0^
1[
0\
0)
0(
1'
1]
1^
1_
0_
#380000
0!
03
0V
0I
0W
#382500
1!
13
1V
1I
1W
1s
1N
0X
1Y
1;
1k
1)
#385000
0!
03
0V
0I
0W
#387500
1!
13
1V
1I
1W
0s
1r
1O
0N
0k
0Z
1X
0Y
1:
0;
1k
1Z
0[
1\
0)
1(
0]
0^
1[
0\
1]
1^
1_
0_
#390000
0!
03
0V
0I
0W
#392500
1!
13
1V
1I
1W
1s
1N
0X
1Y
1d
1;
0k
0Z
1)
0[
1\
0]
0^
1_
#395000
0!
03
0V
0I
0W
#397500
1!
13
1V
1I
1W
0s
0q
0p
1o
0r
0O
1R
0Q
0P
0N
1k
1Z
0_
1`
1]
1^
1[
0\
1h
1X
0Y
0d
0:
17
08
09
0;
0k
0]
1_
0`
1a
0[
0)
0(
0'
0&
1%
0a
#400000
0!
03
0V
0I
0W
#402500
1!
13
1V
1I
1W
1s
1N
0X
1Y
1;
1k
1)
#405000
0!
03
0V
0I
0W
#407500
1!
13
1V
1I
1W
0s
1r
1O
0N
0k
0Z
1X
0Y
1:
0;
1k
1Z
1[
0)
1(
0[
#410000
0!
03
0V
0I
0W
#412500
1!
13
1V
1I
1W
1s
1N
0X
1Y
1d
1;
0k
0Z
1)
1[
#415000
0!
03
0V
0I
0W
#417500
1!
13
1V
1I
1W
0s
1q
0r
0O
1P
0N
1k
1Z
0[
1\
0h
1X
0Y
0d
0:
19
0;
0k
1]
1[
0\
0)
0(
1'
0]
#420000
0!
03
0V
0I
0W
#422500
1!
13
1V
1I
1W
1s
1N
0X
1Y
1;
1k
1)
#425000
0!
03
0V
0I
0W
#427500
1!
13
1V
1I
1W
0s
1r
1O
0N
0k
0Z
1X
0Y
1:
0;
1k
1Z
0[
1\
0)
1(
1]
1[
0\
0]
#430000
0!
03
0V
0I
0W
#432500
1!
13
1V
1I
1W
1s
1N
0X
1Y
1d
1;
0k
0Z
1)
0[
1\
1]
#435000
0!
03
0V
0I
0W
#437500
1!
13
1V
1I
1W
0s
0q
1p
0r
0O
1Q
0P
0N
1k
1Z
0]
0^
1[
0\
1h
1X
0Y
0d
0:
18
09
0;
0k
1]
1^
0_
1`
0[
0)
0(
0'
1&
1a
1_
0`
0a
#440000
0!
03
0V
0I
0W
#442500
1!
13
1V
1I
1W
1s
1N
0X
1Y
1;
1k
1)
#445000
0!
03
0V
0I
0W
#447500
1!
13
1V
1I
1W
0s
1r
1O
0N
0k
0Z
1X
0Y
1:
0;
1k
1Z
1[
0)
1(
0[
#450000
0!
03
0V
0I
0W
#452500
1!
13
1V
1I
1W
1s
1N
0X
1Y
1d
1;
0k
0Z
1)
1[
#455000
0!
03
0V
0I
0W
#457500
1!
13
1V
1I
1W
0s
1q
0r
0O
1P
0N
1k
1Z
0[
1\
0h
1X
0Y
0d
0:
19
0;
0k
0]
0^
1[
0\
0)
0(
1'
1]
1^
0_
1`
1a
1_
0`
0a
#460000
0!
03
0V
0I
0W
#462500
1!
13
1V
1I
1W
1s
1N
0X
1Y
1;
1k
1)
#465000
0!
03
0V
0I
0W
#467500
1!
13
1V
1I
1W
0s
1r
1O
0N
0k
0Z
1X
0Y
1:
0;
1k
1Z
0[
1\
0)
1(
0]
0^
1[
0\
1]
1^
0_
1`
1a
1_
0`
0a
#470000
0!
03
0V
0I
0W
#472500
1!
13
1V
1I
1W
1s
1N
0X
1Y
1d
1;
0k
0Z
1)
0[
1\
0]
0^
0_
1`
1a
#475000
0!
03
0V
0I
0W
#477500
1!
13
1V
1I
1W
0s
0q
0p
0o
1n
0r
0O
1S
0R
0Q
0P
0N
1k
1Z
0a
0b
1_
0`
1]
1^
1[
0\
1X
0Y
0d
0:
16
07
08
09
0;
0k
0]
0_
1a
1b
0c
1f
0[
0)
0(
0'
0&
0%
1$
1g
1c
0f
0g
#480000
0!
03
0V
0I
0W
#482500
1!
13
1V
1I
1W
1s
1N
0X
1Y
1;
1k
1)
#485000
0!
03
0V
0I
0W
#487500
1!
13
1V
1I
1W
0s
1r
1O
0N
0k
0Z
1X
0Y
1:
0;
1k
1Z
1[
0)
1(
0[
#490000
0!
03
0V
0I
0W
#492500
1!
13
1V
1I
1W
1s
1N
0X
1Y
1d
1;
0k
0Z
1)
1[
#495000
0!
03
0V
0I
0W
#497500
1!
13
1V
1I
1W
0s
1q
0r
0O
1P
0N
1k
1Z
0[
1\
1X
0Y
0d
0:
19
0;
0k
1]
1[
0\
0)
0(
1'
0]
#500000
0!
03
0V
0I
0W
#502500
1!
13
1V
1I
1W
1s
1N
0X
1Y
1;
1k
1)
#505000
0!
03
0V
0I
0W
#507500
1!
13
1V
1I
1W
0s
1r
1O
0N
0k
0Z
1X
0Y
1:
0;
1k
1Z
0[
1\
0)
1(
1]
1[
0\
0]
#510000
0!
03
0V
0I
0W
#512500
1!
13
1V
1I
1W
1s
1N
0X
1Y
1d
1;
0k
0Z
1)
0[
1\
1]
#515000
0!
03
0V
0I
0W
#517500
1!
13
1V
1I
1W
0s
0q
1p
0r
0O
1Q
0P
0N
1k
1Z
0]
0^
1[
0\
1X
0Y
0d
0:
18
09
0;
0k
1]
1^
1_
0[
0)
0(
0'
1&
0_
#520000
0!
03
0V
0I
0W
#522500
1!
13
1V
1I
1W
1s
1N
0X
1Y
1;
1k
1)
#525000
0!
03
0V
0I
0W
#527500
1!
13
1V
1I
1W
0s
1r
1O
0N
0k
0Z
1X
0Y
1:
0;
1k
1Z
1[
0)
1(
0[
#530000
0!
03
0V
0I
0W
#532500
1!
13
1V
1I
1W
1s
1N
0X
1Y
1d
1;
0k
0Z
1)
1[
#535000
0!
03
0V
0I
0W
#537500
1!
13
1V
1I
1W
0s
1q
0r
0O
1P
0N
1k
1Z
0[
1\
1e
1X
0Y
0d
0:
19
0;
0k
0]
0^
1[
0\
0)
0(
1'
1]
1^
1_
0_
#540000
0!
03
0V
0I
0W
#542500
1!
13
1V
1I
1W
1s
1N
0X
1Y
1;
1k
1)
#545000
0!
03
0V
0I
0W
#547500
1!
13
1V
1I
1W
0s
1r
1O
0N
0k
0Z
1X
0Y
1:
0;
1k
1Z
0[
1\
0)
1(
0]
0^
1[
0\
1]
1^
1_
0_
#550000
0!
03
0V
0I
0W
#552500
1!
13
1V
1I
1W
1s
1N
0X
1Y
1d
1;
0k
0Z
1)
0[
1\
0]
0^
1_
#555000
0!
03
0V
0I
0W
#557500
1!
13
1V
1I
1W
0s
0q
0p
1o
0r
0O
1R
0Q
0P
0N
1k
1Z
0_
1`
1]
1^
1[
0\
0e
1h
1X
0Y
0d
0:
17
08
09
0;
0k
0]
1_
0`
0a
0b
0[
0)
0(
0'
0&
1%
0c
1f
1a
1b
1c
0f
1g
0g
#560000
0!
03
0V
0I
0W
#562500
1!
13
1V
1I
1W
1s
1N
0X
1Y
1;
1k
1)
#565000
0!
03
0V
0I
0W
#567500
1!
13
1V
1I
1W
0s
1r
1O
0N
0k
0Z
1X
0Y
1:
0;
1k
1Z
1[
0)
1(
0[
#570000
0!
03
0V
0I
0W
#572500
1!
13
1V
1I
1W
1s
1N
0X
1Y
1d
1;
0k
0Z
1)
1[
#575000
0!
03
0V
0I
0W
#577500
1!
13
1V
1I
1W
0s
1q
0r
0O
1P
0N
1k
1Z
0[
1\
0h
1X
0Y
0d
0:
19
0;
0k
1]
1[
0\
0)
0(
1'
0]
#580000
0!
03
0V
0I
0W
#582500
1!
13
1V
1I
1W
1s
1N
0X
1Y
1;
1k
1)
#585000
0!
03
0V
0I
0W
#587500
1!
13
1V
1I
1W
0s
1r
1O
0N
0k
0Z
1X
0Y
1:
0;
1k
1Z
0[
1\
0)
1(
1]
1[
0\
0]
#590000
0!
03
0V
0I
0W
#592500
1!
13
1V
1I
1W
1s
1N
0X
1Y
1d
1;
0k
0Z
1)
0[
1\
1]
#595000
0!
03
0V
0I
0W
#597500
1!
13
1V
1I
1W
0s
0q
1p
0r
0O
1Q
0P
0N
1k
1Z
0]
0^
1[
0\
1h
1X
0Y
0d
0:
18
09
0;
0k
1]
1^
0_
1`
0[
0)
0(
0'
1&
0a
0b
1_
0`
1a
1b
0c
1f
1g
1c
0f
0g
#600000
0!
03
0V
0I
0W
#602500
1!
13
1V
1I
1W
1s
1N
0X
1Y
1;
1k
1)
#605000
0!
03
0V
0I
0W
#607500
1!
13
1V
1I
1W
0s
1r
1O
0N
0k
0Z
1X
0Y
1:
0;
1k
1Z
1[
0)
1(
0[
#610000
0!
03
0V
0I
0W
#612500
1!
13
1V
1I
1W
1s
1N
0X
1Y
1d
1;
0k
0Z
1)
1[
#615000
0!
03
0V
0I
0W
#617500
1!
13
1V
1I
1W
0s
1q
0r
0O
1P
0N
1k
1Z
0[
1\
1e
0h
1X
0Y
0d
0:
19
0;
0k
0]
0^
1[
0\
0)
0(
1'
1]
1^
0_
1`
0a
0b
1_
0`
1a
1b
0c
1f
1g
1c
0f
0g
#620000
0!
03
0V
0I
0W
#622500
1!
13
1V
1I
1W
1s
1N
0X
1Y
1;
1k
1)
#625000
0!
03
0V
0I
0W
#627500
1!
13
1V
1I
1W
0s
1r
1O
0N
0k
0Z
1X
0Y
1:
0;
1k
1Z
0[
1\
0)
1(
0]
0^
1[
0\
1]
1^
0_
1`
0a
0b
1_
0`
1a
1b
0c
1f
1g
1c
0f
0g
#630000
0!
03
0V
0I
0W
#632500
1!
13
1V
1I
1W
1s
1N
0X
1Y
1d
1;
0k
0Z
1)
0[
1\
0]
0^
0_
1`
0a
0b
0c
1f
1g
#635000
0!
03
0V
0I
0W
#637500
1!
13
1V
1I
1W
0s
0q
0p
0o
0n
0m
1l
0r
0O
1U
0T
0S
0R
0Q
0P
0N
1k
1Z
0g
1c
0f
1a
1b
1_
0`
1]
1^
1[
0\
0e
1h
1X
0Y
0d
0:
14
05
06
07
08
09
0;
0k
0]
0_
0a
0c
1g
0[
0)
0(
0'
0&
0%
0$
0#
1"
#640000
0!
03
0V
0I
0W
#642500
1!
13
1V
1I
1W
1s
1N
0X
1Y
1;
1k
1)
#645000
0!
03
0V
0I
0W
#647500
1!
13
1V
1I
1W
0s
1r
1O
0N
0k
0Z
1X
0Y
1:
0;
1k
1Z
1[
0)
1(
0[
#650000
0!
03
0V
0I
0W
#652500
1!
13
1V
1I
1W
1s
1N
0X
1Y
1;
0k
0Z
1)
1[
#655000
0!
03
0V
0I
0W
#657500
1!
13
1V
1I
1W
0s
1q
0r
0O
1P
0N
1k
1Z
0[
1\
0h
1X
0Y
0:
19
0;
0k
1]
1[
0\
0)
0(
1'
0]
#660000
0!
03
0V
0I
0W
#662500
1!
13
1V
1I
1W
1s
1N
0X
1Y
1;
1k
1)
#665000
0!
03
0V
0I
0W
#667500
1!
13
1V
1I
1W
0s
1r
1O
0N
0k
0Z
1X
0Y
1:
0;
1k
1Z
0[
1\
0)
1(
1]
1[
0\
0]
#670000
0!
03
0V
0I
0W
#672500
1!
13
1V
1I
1W
1s
1N
0X
1Y
1;
0k
0Z
1)
0[
1\
1]
#675000
0!
03
0V
0I
0W
#677500
1!
13
1V
1I
1W
0s
0q
1p
0r
0O
1Q
0P
0N
1k
1Z
0]
0^
1[
0\
1h
1X
0Y
0:
18
09
0;
0k
1]
1^
1_
0[
0)
0(
0'
1&
0_
#680000
0!
03
0V
0I
0W
#682500
1!
13
1V
1I
1W
1s
1N
0X
1Y
1;
1k
1)
#685000
0!
03
0V
0I
0W
