DAC08/simulation/qsim/DAC08.msim.vcd
$comment
	File created using the following command:
		vcd file DAC08.msim.vcd -direction
$end
$date
	Sun Jan 14 13:46:18 2024
$end
$version
	ModelSim Version 10.5b
$end
$timescale
	1ps
$end

$scope module dac08_vhd_vec_tst $end
$var wire 1 ! clk $end
$var wire 1 " dacin [7] $end
$var wire 1 # dacin [6] $end
$var wire 1 $ dacin [5] $end
$var wire 1 % dacin [4] $end
$var wire 1 & dacin [3] $end
$var wire 1 ' dacin [2] $end
$var wire 1 ( dacin [1] $end
$var wire 1 ) dacin [0] $end
$var wire 1 * piz $end

$scope module i1 $end
$var wire 1 + gnd $end
$var wire 1 , vcc $end
$var wire 1 - unknown $end
$var wire 1 . devoe $end
$var wire 1 / devclrn $end
$var wire 1 0 devpor $end
$var wire 1 1 ww_devoe $end
$var wire 1 2 ww_devclrn $end
$var wire 1 3 ww_devpor $end
$var wire 1 4 ww_piz $end
$var wire 1 5 ww_clk $end
$var wire 1 6 ww_dacin [7] $end
$var wire 1 7 ww_dacin [6] $end
$var wire 1 8 ww_dacin [5] $end
$var wire 1 9 ww_dacin [4] $end
$var wire 1 : ww_dacin [3] $end
$var wire 1 ; ww_dacin [2] $end
$var wire 1 < ww_dacin [1] $end
$var wire 1 = ww_dacin [0] $end
$var wire 1 > \~QUARTUS_CREATED_ADC1~_CHSEL_bus\ [4] $end
$var wire 1 ? \~QUARTUS_CREATED_ADC1~_CHSEL_bus\ [3] $end
$var wire 1 @ \~QUARTUS_CREATED_ADC1~_CHSEL_bus\ [2] $end
$var wire 1 A \~QUARTUS_CREATED_ADC1~_CHSEL_bus\ [1] $end
$var wire 1 B \~QUARTUS_CREATED_ADC1~_CHSEL_bus\ [0] $end
$var wire 1 C \~QUARTUS_CREATED_ADC2~_CHSEL_bus\ [4] $end
$var wire 1 D \~QUARTUS_CREATED_ADC2~_CHSEL_bus\ [3] $end
$var wire 1 E \~QUARTUS_CREATED_ADC2~_CHSEL_bus\ [2] $end
$var wire 1 F \~QUARTUS_CREATED_ADC2~_CHSEL_bus\ [1] $end
$var wire 1 G \~QUARTUS_CREATED_ADC2~_CHSEL_bus\ [0] $end
$var wire 1 H \clk~inputclkctrl_INCLK_bus\ [3] $end
$var wire 1 I \clk~inputclkctrl_INCLK_bus\ [2] $end
$var wire 1 J \clk~inputclkctrl_INCLK_bus\ [1] $end
$var wire 1 K \clk~inputclkctrl_INCLK_bus\ [0] $end
$var wire 1 L \~QUARTUS_CREATED_GND~I_combout\ $end
$var wire 1 M \~QUARTUS_CREATED_UNVM~~busy\ $end
$var wire 1 N \~QUARTUS_CREATED_ADC1~~eoc\ $end
$var wire 1 O \~QUARTUS_CREATED_ADC2~~eoc\ $end
$var wire 1 P \piz~output_o\ $end
$var wire 1 Q \dacin[7]~output_o\ $end
$var wire 1 R \dacin[6]~output_o\ $end
$var wire 1 S \dacin[5]~output_o\ $end
$var wire 1 T \dacin[4]~output_o\ $end
$var wire 1 U \dacin[3]~output_o\ $end
$var wire 1 V \dacin[2]~output_o\ $end
$var wire 1 W \dacin[1]~output_o\ $end
$var wire 1 X \dacin[0]~output_o\ $end
$var wire 1 Y \clk~input_o\ $end
$var wire 1 Z \clk~inputclkctrl_outclk\ $end
$var wire 1 [ \inst1|cnt[0]~8_combout\ $end
$var wire 1 \ \inst1|cnt[0]~9\ $end
$var wire 1 ] \inst1|cnt[1]~10_combout\ $end
$var wire 1 ^ \inst1|cnt[1]~11\ $end
$var wire 1 _ \inst1|cnt[2]~12_combout\ $end
$var wire 1 ` \inst1|cnt[2]~13\ $end
$var wire 1 a \inst1|cnt[3]~14_combout\ $end
$var wire 1 b \inst1|comb~1_combout\ $end
$var wire 1 c \inst1|cnt[3]~15\ $end
$var wire 1 d \inst1|cnt[4]~16_combout\ $end
$var wire 1 e \inst1|cnt[4]~17\ $end
$var wire 1 f \inst1|cnt[5]~18_combout\ $end
$var wire 1 g \inst1|cnt[5]~19\ $end
$var wire 1 h \inst1|cnt[6]~20_combout\ $end
$var wire 1 i \inst1|cnt[6]~21\ $end
$var wire 1 j \inst1|cnt[7]~22_combout\ $end
$var wire 1 k \inst1|comb~0_combout\ $end
$var wire 1 l \inst1|comb~2_combout\ $end
$var wire 1 m \inst1|Equal1~0_combout\ $end
$var wire 1 n \inst1|Equal1~1_combout\ $end
$var wire 1 o \inst1|Equal1~2_combout\ $end
$var wire 1 p \inst1|u_d~combout\ $end
$var wire 1 q \inst1|cnt\ [7] $end
$var wire 1 r \inst1|cnt\ [6] $end
$var wire 1 s \inst1|cnt\ [5] $end
$var wire 1 t \inst1|cnt\ [4] $end
$var wire 1 u \inst1|cnt\ [3] $end
$var wire 1 v \inst1|cnt\ [2] $end
$var wire 1 w \inst1|cnt\ [1] $end
$var wire 1 x \inst1|cnt\ [0] $end
$upscope $end
$upscope $end
$enddefinitions $end
#0
$dumpvars
0!
1*
0+
1,
x-
1.
1/
10
11
12
13
14
05
0L
zM
zN
zO
1P
0Q
0R
0S
0T
0U
0V
0W
0X
0Y
0Z
1[
0\
0]
1^
0_
0`
0a
1b
1c
0d
0e
0f
1g
0h
0i
0j
1k
1l
0m
0n
0o
1p
06
07
08
09
0:
0;
0<
0=
0q
0r
0s
0t
0u
0v
0w
0x
1H
1I
1J
0K
0>
0?
0@
0A
0B
0C
0D
0E
0F
0G
0"
0#
0$
0%
0&
0'
0(
0)
$end
#625
1!
15
1Y
1K
1Z
1x
1X
0[
1\
0b
1=
0l
1]
1)
#1250
0!
05
0Y
0K
0Z
#1875
1!
15
1Y
1K
1Z
0x
1w
1W
0X
0]
0^
1[
0\
1<
0=
1]
1^
1_
0)
1(
0_
#2500
0!
05
0Y
0K
0Z
#3125
1!
15
1Y
1K
1Z
1x
1X
0[
1\
1=
0]
0^
1)
1_
#3750
0!
05
0Y
0K
0Z
#4375
1!
15
1Y
1K
1Z
0x
0w
1v
1V
0W
0X
0_
1`
1]
1^
1[
0\
1;
0<
0=
0]
1_
0`
1a
0)
0(
1'
0a
#5000
0!
05
0Y
0K
0Z
#5625
1!
15
1Y
1K
1Z
1x
1X
0[
1\
1=
1]
1)
#6250
0!
05
0Y
0K
0Z
#6875
1!
15
1Y
1K
1Z
0x
1w
1W
0X
0]
0^
1[
0\
1<
0=
1]
1^
0_
1`
0)
1(
1a
1_
0`
0a
#7500
0!
05
0Y
0K
0Z
#8125
1!
15
1Y
1K
1Z
1x
1X
0[
1\
1=
0]
0^
1)
0_
1`
1a
#8750
0!
05
0Y
0K
0Z
#9375
1!
15
1Y
1K
1Z
0x
0w
0v
1u
1U
0V
0W
0X
0a
0c
1_
0`
1]
1^
1[
0\
1:
0;
0<
0=
0]
0_
1a
1c
1d
0)
0(
0'
1&
0d
#10000
0!
05
0Y
0K
0Z
#10625
1!
15
1Y
1K
1Z
1x
1X
0[
1\
1=
1]
1)
#11250
0!
05
0Y
0K
0Z
#11875
1!
15
1Y
1K
1Z
0x
1w
1W
0X
0]
0^
1[
0\
1<
0=
1]
1^
1_
0)
1(
0_
#12500
0!
05
0Y
0K
0Z
#13125
1!
15
1Y
1K
1Z
1x
1X
0[
1\
1=
0]
0^
1)
1_
#13750
0!
05
0Y
0K
0Z
#14375
1!
15
1Y
1K
1Z
0x
0w
1v
1V
0W
0X
0_
1`
1]
1^
1[
0\
1;
0<
0=
0]
1_
0`
0a
0c
0)
0(
1'
1d
1a
1c
0d
#15000
0!
05
0Y
0K
0Z
#15625
1!
15
1Y
1K
1Z
1x
1X
0[
1\
1=
1]
1)
#16250
0!
05
0Y
0K
0Z
#16875
1!
15
1Y
1K
1Z
0x
1w
1W
0X
0]
0^
1[
0\
1<
0=
1]
1^
0_
1`
0)
1(
0a
0c
1_
0`
1a
1c
1d
0d
#17500
0!
05
0Y
0K
0Z
#18125
1!
15
1Y
1K
1Z
1x
1X
0[
1\
1n
1=
0]
0^
1)
0_
1`
0a
0c
1d
#18750
0!
05
0Y
0K
0Z
#19375
1!
15
1Y
1K
1Z
0x
0w
0v
0u
1t
1T
0U
0V
0W
0X
0d
1e
0k
1a
1c
1_
0`
1]
1^
1[
0\
1b
0n
19
0:
0;
0<
0=
0]
0_
0a
1d
0e
1f
0)
0(
0'
0&
1%
0f
#20000
0!
05
0Y
0K
0Z
#20625
1!
15
1Y
1K
1Z
1x
1X
0[
1\
0b
1=
1]
1)
#21250
0!
05
0Y
0K
0Z
#21875
1!
15
1Y
1K
1Z
0x
1w
1W
0X
0]
0^
1[
0\
1<
0=
1]
1^
1_
0)
1(
0_
#22500
0!
05
0Y
0K
0Z
#23125
1!
15
1Y
1K
1Z
1x
1X
0[
1\
1=
0]
0^
1)
1_
#23750
0!
05
0Y
0K
0Z
#24375
1!
15
1Y
1K
1Z
0x
0w
1v
1V
0W
0X
0_
1`
1]
1^
1[
0\
1;
0<
0=
0]
1_
0`
1a
0)
0(
1'
0a
#25000
0!
05
0Y
0K
0Z
#25625
1!
15
1Y
1K
1Z
1x
1X
0[
1\
1=
1]
1)
#26250
0!
05
0Y
0K
0Z
#26875
1!
15
1Y
1K
1Z
0x
1w
1W
0X
0]
0^
1[
0\
1<
0=
1]
1^
0_
1`
0)
1(
1a
1_
0`
0a
#27500
0!
05
0Y
0K
0Z
#28125
1!
15
1Y
1K
1Z
1x
1X
0[
1\
1=
0]
0^
1)
0_
1`
1a
#28750
0!
05
0Y
0K
0Z
#29375
1!
15
1Y
1K
1Z
0x
0w
0v
1u
1U
0V
0W
0X
0a
0c
1_
0`
1]
1^
1[
0\
1:
0;
0<
0=
0]
0_
1a
1c
0d
1e
0)
0(
0'
1&
1f
1d
0e
0f
#30000
0!
05
0Y
0K
0Z
#30625
1!
15
1Y
1K
1Z
1x
1X
0[
1\
1=
1]
1)
#31250
0!
05
0Y
0K
0Z
#31875
1!
15
1Y
1K
1Z
0x
1w
1W
0X
0]
0^
1[
0\
1<
0=
1]
1^
1_
0)
1(
0_
#32500
0!
05
0Y
0K
0Z
#33125
1!
15
1Y
1K
1Z
1x
1X
0[
1\
1=
0]
0^
1)
1_
#33750
0!
05
0Y
0K
0Z
#34375
1!
15
1Y
1K
1Z
0x
0w
1v
1V
0W
0X
0_
1`
1]
1^
1[
0\
1;
0<
0=
0]
1_
0`
0a
0c
0)
0(
1'
0d
1e
1a
1c
1d
0e
1f
0f
#35000
0!
05
0Y
0K
0Z
#35625
1!
15
1Y
1K
1Z
1x
1X
0[
1\
1=
1]
1)
#36250
0!
05
0Y
0K
0Z
#36875
1!
15
1Y
1K
1Z
0x
1w
1W
0X
0]
0^
1[
0\
1<
0=
1]
1^
0_
1`
0)
1(
0a
0c
1_
0`
1a
1c
0d
1e
1f
1d
0e
0f
#37500
0!
05
0Y
0K
0Z
#38125
1!
15
1Y
1K
1Z
1x
1X
0[
1\
1n
1=
0]
0^
1)
0_
1`
0a
0c
0d
1e
1f
#38750
0!
05
0Y
0K
0Z
#39375
1!
15
1Y
1K
1Z
0x
0w
0v
0u
0t
1s
1S
0T
0U
0V
0W
0X
0f
0g
1d
0e
1a
1c
1_
0`
1]
1^
1[
0\
1b
0n
18
09
0:
0;
0<
0=
0]
0_
0a
0d
1f
1g
1h
0)
0(
0'
0&
0%
1$
0h
#40000
0!
05
0Y
0K
0Z
#40625
1!
15
1Y
1K
1Z
1x
1X
0[
1\
0b
1=
1]
1)
#41250
0!
05
0Y
0K
0Z
#41875
1!
15
1Y
1K
1Z
0x
1w
1W
0X
0]
0^
1[
0\
1<
0=
1]
1^
1_
0)
1(
0_
#42500
0!
05
0Y
0K
0Z
#43125
1!
15
1Y
1K
1Z
1x
1X
0[
1\
1=
0]
0^
1)
1_
#43750
0!
05
0Y
0K
0Z
#44375
1!
15
1Y
1K
1Z
0x
0w
1v
1V
0W
0X
0_
1`
1]
1^
1[
0\
1;
0<
0=
0]
1_
0`
1a
0)
0(
1'
0a
#45000
0!
05
0Y
0K
0Z
#45625
1!
15
1Y
1K
1Z
1x
1X
0[
1\
1=
1]
1)
#46250
0!
05
0Y
0K
0Z
#46875
1!
15
1Y
1K
1Z
0x
1w
1W
0X
0]
0^
1[
0\
1<
0=
1]
1^
0_
1`
0)
1(
1a
1_
0`
0a
#47500
0!
05
0Y
0K
0Z
#48125
1!
15
1Y
1K
1Z
1x
1X
0[
1\
1=
0]
0^
1)
0_
1`
1a
#48750
0!
05
0Y
0K
0Z
#49375
1!
15
1Y
1K
1Z
0x
0w
0v
1u
1U
0V
0W
0X
0a
0c
1_
0`
1]
1^
1[
0\
1:
0;
0<
0=
0]
0_
1a
1c
1d
0)
0(
0'
1&
0d
#50000
0!
05
0Y
0K
0Z
#50625
1!
15
1Y
1K
1Z
1x
1X
0[
1\
1=
1]
1)
#51250
0!
05
0Y
0K
0Z
#51875
1!
15
1Y
1K
1Z
0x
1w
1W
0X
0]
0^
1[
0\
1<
0=
1]
1^
1_
0)
1(
0_
#52500
0!
05
0Y
0K
0Z
#53125
1!
15
1Y
1K
1Z
1x
1X
0[
1\
1=
0]
0^
1)
1_
#53750
0!
05
0Y
0K
0Z
#54375
1!
15
1Y
1K
1Z
0x
0w
1v
1V
0W
0X
0_
1`
1]
1^
1[
0\
1;
0<
0=
0]
1_
0`
0a
0c
0)
0(
1'
1d
1a
1c
0d
#55000
0!
05
0Y
0K
0Z
#55625
1!
15
1Y
1K
1Z
1x
1X
0[
1\
1=
1]
1)
#56250
0!
05
0Y
0K
0Z
#56875
1!
15
1Y
1K
1Z
0x
1w
1W
0X
0]
0^
1[
0\
1<
0=
1]
1^
0_
1`
0)
1(
0a
0c
1_
0`
1a
1c
1d
0d
#57500
0!
05
0Y
0K
0Z
#58125
1!
15
1Y
1K
1Z
1x
1X
0[
1\
1n
1=
0]
0^
1)
0_
1`
0a
0c
1d
#58750
0!
05
0Y
0K
0Z
#59375
1!
15
1Y
1K
1Z
0x
0w
0v
0u
1t
1T
0U
0V
0W
0X
0d
1e
1a
1c
1_
0`
1]
1^
1[
0\
1b
0n
19
0:
0;
0<
0=
0]
0_
0a
1d
0e
0f
0g
0)
0(
0'
0&
1%
1h
1f
1g
0h
#60000
0!
05
0Y
0K
0Z
#60625
1!
15
1Y
1K
1Z
1x
1X
0[
1\
0b
1=
1]
1)
#61250
0!
05
0Y
0K
0Z
#61875
1!
15
1Y
1K
1Z
0x
1w
1W
0X
0]
0^
1[
0\
1<
0=
1]
1^
1_
0)
1(
0_
#62500
0!
05
0Y
0K
0Z
#63125
1!
15
1Y
1K
1Z
1x
1X
0[
1\
1=
0]
0^
1)
1_
#63750
0!
05
0Y
0K
0Z
#64375
1!
15
1Y
1K
1Z
0x
0w
1v
1V
0W
0X
0_
1`
1]
1^
1[
0\
1;
0<
0=
0]
1_
0`
1a
0)
0(
1'
0a
#65000
0!
05
0Y
0K
0Z
#65625
1!
15
1Y
1K
1Z
1x
1X
0[
1\
1=
1]
1)
#66250
0!
05
0Y
0K
0Z
#66875
1!
15
1Y
1K
1Z
0x
1w
1W
0X
0]
0^
1[
0\
1<
0=
1]
1^
0_
1`
0)
1(
1a
1_
0`
0a
#67500
0!
05
0Y
0K
0Z
#68125
1!
15
1Y
1K
1Z
1x
1X
0[
1\
1=
0]
0^
1)
0_
1`
1a
#68750
0!
05
0Y
0K
0Z
#69375
1!
15
1Y
1K
1Z
0x
0w
0v
1u
1U
0V
0W
0X
0a
0c
1_
0`
1]
1^
1[
0\
1:
0;
0<
0=
0]
0_
1a
1c
0d
1e
0)
0(
0'
1&
0f
0g
1d
0e
1f
1g
1h
0h
#70000
0!
05
0Y
0K
0Z
#70625
1!
15
1Y
1K
1Z
1x
1X
0[
1\
1=
1]
1)
#71250
0!
05
0Y
0K
0Z
#71875
1!
15
1Y
1K
1Z
0x
1w
1W
0X
0]
0^
1[
0\
1<
0=
1]
1^
1_
0)
1(
0_
#72500
0!
05
0Y
0K
0Z
#73125
1!
15
1Y
1K
1Z
1x
1X
0[
1\
1=
0]
0^
1)
1_
#73750
0!
05
0Y
0K
0Z
#74375
1!
15
1Y
1K
1Z
0x
0w
1v
1V
0W
0X
0_
1`
1]
1^
1[
0\
1;
0<
0=
0]
1_
0`
0a
0c
0)
0(
1'
0d
1e
1a
1c
1d
0e
0f
0g
1h
1f
1g
0h
#75000
0!
05
0Y
0K
0Z
#75625
1!
15
1Y
1K
1Z
1x
1X
0[
1\
1=
1]
1)
#76250
0!
05
0Y
0K
0Z
#76875
1!
15
1Y
1K
1Z
0x
1w
1W
0X
0]
0^
1[
0\
1<
0=
1]
1^
0_
1`
0)
1(
0a
0c
1_
0`
1a
1c
0d
1e
0f
0g
1d
0e
1f
1g
1h
0h
#77500
0!
05
0Y
0K
0Z
#78125
1!
15
1Y
1K
1Z
1x
1X
0[
1\
1n
1=
0]
0^
1)
0_
1`
0a
0c
0d
1e
0f
0g
1h
#78750
0!
05
0Y
0K
0Z
#79375
1!
15
1Y
1K
1Z
0x
0w
0v
0u
0t
0s
1r
1R
0S
0T
0U
0V
0W
0X
0h
1i
1f
1g
1d
0e
1a
1c
1_
0`
1]
1^
1[
0\
1b
0n
17
08
09
0:
0;
0<
0=
0]
0_
0a
0d
0f
1h
0i
1j
0)
0(
0'
0&
0%
0$
1#
0j
#80000
0!
05
0Y
0K
0Z
#80625
1!
15
1Y
1K
1Z
1x
1X
0[
1\
0b
1=
1]
1)
#81250
0!
05
0Y
0K
0Z
#81875
1!
15
1Y
1K
1Z
0x
1w
1W
0X
0]
0^
1[
0\
1<
0=
1]
1^
1_
0)
1(
0_
#82500
0!
05
0Y
0K
0Z
#83125
1!
15
1Y
1K
1Z
1x
1X
0[
1\
1=
0]
0^
1)
1_
#83750
0!
05
0Y
0K
0Z
#84375
1!
15
1Y
1K
1Z
0x
0w
1v
1V
0W
0X
0_
1`
1]
1^
1[
0\
1;
0<
0=
0]
1_
0`
1a
0)
0(
1'
0a
#85000
0!
05
0Y
0K
0Z
#85625
1!
15
1Y
1K
1Z
1x
1X
0[
1\
1=
1]
1)
#86250
0!
05
0Y
0K
0Z
#86875
1!
15
1Y
1K
1Z
0x
1w
1W
0X
0]
0^
1[
0\
1<
0=
1]
1^
0_
1`
0)
1(
1a
1_
0`
0a
#87500
0!
05
0Y
0K
0Z
#88125
1!
15
1Y
1K
1Z
1x
1X
0[
1\
1=
0]
0^
1)
0_
1`
1a
#88750
0!
05
0Y
0K
0Z
#89375
1!
15
1Y
1K
1Z
0x
0w
0v
1u
1U
0V
0W
0X
0a
0c
1_
0`
1]
1^
1[
0\
1:
0;
0<
0=
0]
0_
1a
1c
1d
0)
0(
0'
1&
0d
#90000
0!
05
0Y
0K
0Z
#90625
1!
15
1Y
1K
1Z
1x
1X
0[
1\
1=
1]
1)
#91250
0!
05
0Y
0K
0Z
#91875
1!
15
1Y
1K
1Z
0x
1w
1W
0X
0]
0^
1[
0\
1<
0=
1]
1^
1_
0)
1(
0_
#92500
0!
05
0Y
0K
0Z
#93125
1!
15
1Y
1K
1Z
1x
1X
0[
1\
1=
0]
0^
1)
1_
#93750
0!
05
0Y
0K
0Z
#94375
1!
15
1Y
1K
1Z
0x
0w
1v
1V
0W
0X
0_
1`
1]
1^
1[
0\
1;
0<
0=
0]
1_
0`
0a
0c
0)
0(
1'
1d
1a
1c
0d
#95000
0!
05
0Y
0K
0Z
#95625
1!
15
1Y
1K
1Z
1x
1X
0[
1\
1=
1]
1)
#96250
0!
05
0Y
0K
0Z
#96875
1!
15
1Y
1K
1Z
0x
1w
1W
0X
0]
0^
1[
0\
1<
0=
1]
1^
0_
1`
0)
1(
0a
0c
1_
0`
1a
1c
1d
0d
#97500
0!
05
0Y
0K
0Z
#98125
1!
15
1Y
1K
1Z
1x
1X
0[
1\
1n
1=
0]
0^
1)
0_
1`
0a
0c
1d
#98750
0!
05
0Y
0K
0Z
#99375
1!
15
1Y
1K
1Z
0x
0w
0v
0u
1t
1T
0U
0V
0W
0X
0d
1e
1a
1c
1_
0`
1]
1^
1[
0\
1b
0n
19
0:
0;
0<
0=
0]
0_
0a
1d
0e
1f
0)
0(
0'
0&
1%
0f
#100000
0!
05
0Y
0K
0Z
#100625
1!
15
1Y
1K
1Z
1x
1X
0[
1\
0b
1=
1]
1)
#101250
0!
05
0Y
0K
0Z
#101875
1!
15
1Y
1K
1Z
0x
1w
1W
0X
0]
0^
1[
0\
1<
0=
1]
1^
1_
0)
1(
0_
#102500
0!
05
0Y
0K
0Z
#103125
1!
15
1Y
1K
1Z
1x
1X
0[
1\
1=
0]
0^
1)
1_
#103750
0!
05
0Y
0K
0Z
#104375
1!
15
1Y
1K
1Z
0x
0w
1v
1V
0W
0X
0_
1`
1]
1^
1[
0\
1;
0<
0=
0]
1_
0`
1a
0)
0(
1'
0a
#105000
0!
05
0Y
0K
0Z
#105625
1!
15
1Y
1K
1Z
1x
1X
0[
1\
1=
1]
1)
#106250
0!
05
0Y
0K
0Z
#106875
1!
15
1Y
1K
1Z
0x
1w
1W
0X
0]
0^
1[
0\
1<
0=
1]
1^
0_
1`
0)
1(
1a
1_
0`
0a
#107500
0!
05
0Y
0K
0Z
#108125
1!
15
1Y
1K
1Z
1x
1X
0[
1\
1=
0]
0^
1)
0_
1`
1a
#108750
0!
05
0Y
0K
0Z
#109375
1!
15
1Y
1K
1Z
0x
0w
0v
1u
1U
0V
0W
0X
0a
0c
1_
0`
1]
1^
1[
0\
1:
0;
0<
0=
0]
0_
1a
1c
0d
1e
0)
0(
0'
1&
1f
1d
0e
0f
#110000
0!
05
0Y
0K
0Z
#110625
1!
15
1Y
1K
1Z
1x
1X
0[
1\
1=
1]
1)
#111250
0!
05
0Y
0K
0Z
#111875
1!
15
1Y
1K
1Z
0x
1w
1W
0X
0]
0^
1[
0\
1<
0=
1]
1^
1_
0)
1(
0_
#112500
0!
05
0Y
0K
0Z
#113125
1!
15
1Y
1K
1Z
1x
1X
0[
1\
1=
0]
0^
1)
1_
#113750
0!
05
0Y
0K
0Z
#114375
1!
15
1Y
1K
1Z
0x
0w
1v
1V
0W
0X
0_
1`
1]
1^
1[
0\
1;
0<
0=
0]
1_
0`
0a
0c
0)
0(
1'
0d
1e
1a
1c
1d
0e
1f
0f
#115000
0!
05
0Y
0K
0Z
#115625
1!
15
1Y
1K
1Z
1x
1X
0[
1\
1=
1]
1)
#116250
0!
05
0Y
0K
0Z
#116875
1!
15
1Y
1K
1Z
0x
1w
1W
0X
0]
0^
1[
0\
1<
0=
1]
1^
0_
1`
0)
1(
0a
0c
1_
0`
1a
1c
0d
1e
1f
1d
0e
0f
#117500
0!
05
0Y
0K
0Z
#118125
1!
15
1Y
1K
1Z
1x
1X
0[
1\
1n
1=
0]
0^
1)
0_
1`
0a
0c
0d
1e
1f
#118750
0!
05
0Y
0K
0Z
#119375
1!
15
1Y
1K
1Z
0x
0w
0v
0u
0t
1s
1S
0T
0U
0V
0W
0X
0f
0g
1d
0e
1a
1c
1_
0`
1]
1^
1[
0\
1b
0n
18
09
0:
0;
0<
0=
0]
0_
0a
0d
1f
1g
0h
1i
0)
0(
0'
0&
0%
1$
1j
1h
0i
0j
#120000
0!
05
0Y
0K
0Z
#120625
1!
15
1Y
1K
1Z
1x
1X
0[
1\
0b
1=
1]
1)
#121250
0!
05
0Y
0K
0Z
#121875
1!
15
1Y
1K
1Z
0x
1w
1W
0X
0]
0^
1[
0\
1<
0=
1]
1^
1_
0)
1(
0_
#122500
0!
05
0Y
0K
0Z
#123125
1!
15
1Y
1K
1Z
1x
1X
0[
1\
1=
0]
0^
1)
1_
#123750
0!
05
0Y
0K
0Z
#124375
1!
15
1Y
1K
1Z
0x
0w
1v
1V
0W
0X
0_
1`
1]
1^
1[
0\
1;
0<
0=
0]
1_
0`
1a
0)
0(
1'
0a
#125000
0!
05
0Y
0K
0Z
#125625
1!
15
1Y
1K
1Z
1x
1X
0[
1\
1=
1]
1)
#126250
0!
05
0Y
0K
0Z
#126875
1!
15
1Y
1K
1Z
0x
1w
1W
0X
0]
0^
1[
0\
1<
0=
1]
1^
0_
1`
0)
1(
1a
1_
0`
0a
#127500
0!
05
0Y
0K
0Z
#128125
1!
15
1Y
1K
1Z
1x
1X
0[
1\
1=
0]
0^
1)
0_
1`
1a
#128750
0!
05
0Y
0K
0Z
#129375
1!
15
1Y
1K
1Z
0x
0w
0v
1u
1U
0V
0W
0X
0a
0c
1_
0`
1]
1^
1[
0\
1:
0;
0<
0=
0]
0_
1a
1c
1d
0)
0(
0'
1&
0d
#130000
0!
05
0Y
0K
0Z
#130625
1!
15
1Y
1K
1Z
1x
1X
0[
1\
1=
1]
1)
#131250
0!
05
0Y
0K
0Z
#131875
1!
15
1Y
1K
1Z
0x
1w
1W
0X
0]
0^
1[
0\
1<
0=
1]
1^
1_
0)
1(
0_
#132500
0!
05
0Y
0K
0Z
#133125
1!
15
1Y
1K
1Z
1x
1X
0[
1\
1=
0]
0^
1)
1_
#133750
0!
05
0Y
0K
0Z
#134375
1!
15
1Y
1K
1Z
0x
0w
1v
1V
0W
0X
0_
1`
1]
1^
1[
0\
1;
0<
0=
0]
1_
0`
0a
0c
0)
0(
1'
1d
1a
1c
0d
#135000
0!
05
0Y
0K
0Z
#135625
1!
15
1Y
1K
1Z
1x
1X
0[
1\
1=
1]
1)
#136250
0!
05
0Y
0K
0Z
#136875
1!
15
1Y
1K
1Z
0x
1w
1W
0X
0]
0^
1[
0\
1<
0=
1]
1^
0_
1`
0)
1(
0a
0c
1_
0`
1a
1c
1d
0d
#137500
0!
05
0Y
0K
0Z
#138125
1!
15
1Y
1K
1Z
1x
1X
0[
1\
1n
1=
0]
0^
1)
0_
1`
0a
0c
1d
#138750
0!
05
0Y
0K
0Z
#139375
1!
15
1Y
1K
1Z
0x
0w
0v
0u
1t
1T
0U
0V
0W
0X
0d
1e
1a
1c
1_
0`
1]
1^
1[
0\
1b
0n
19
0:
0;
0<
0=
0]
0_
0a
1d
0e
0f
0g
0)
0(
0'
0&
1%
0h
1i
1f
1g
1h
0i
1j
0j
#140000
0!
05
0Y
0K
0Z
#140625
1!
15
1Y
1K
1Z
1x
1X
0[
1\
0b
1=
1]
1)
#141250
0!
05
0Y
0K
0Z
#141875
1!
15
1Y
1K
1Z
0x
1w
1W
0X
0]
0^
1[
0\
1<
0=
1]
1^
1_
0)
1(
0_
#142500
0!
05
0Y
0K
0Z
#143125
1!
15
1Y
1K
1Z
1x
1X
0[
1\
1=
0]
0^
1)
1_
#143750
0!
05
0Y
0K
0Z
#144375
1!
15
1Y
1K
1Z
0x
0w
1v
1V
0W
0X
0_
1`
1]
1^
1[
0\
1;
0<
0=
0]
1_
0`
1a
0)
0(
1'
0a
#145000
0!
05
0Y
0K
0Z
#145625
1!
15
1Y
1K
1Z
1x
1X
0[
1\
1=
1]
1)
#146250
0!
05
0Y
0K
0Z
#146875
1!
15
1Y
1K
1Z
0x
1w
1W
0X
0]
0^
1[
0\
1<
0=
1]
1^
0_
1`
0)
1(
1a
1_
0`
0a
#147500
0!
05
0Y
0K
0Z
#148125
1!
15
1Y
1K
1Z
1x
1X
0[
1\
1=
0]
0^
1)
0_
1`
1a
#148750
0!
05
0Y
0K
0Z
#149375
1!
15
1Y
1K
1Z
0x
0w
0v
1u
1U
0V
0W
0X
0a
0c
1_
0`
1]
1^
1[
0\
1:
0;
0<
0=
0]
0_
1a
1c
0d
1e
0)
0(
0'
1&
0f
0g
1d
0e
1f
1g
0h
1i
1j
1h
0i
0j
#150000
0!
05
0Y
0K
0Z
#150625
1!
15
1Y
1K
1Z
1x
1X
0[
1\
1=
1]
1)
#151250
0!
05
0Y
0K
0Z
#151875
1!
15
1Y
1K
1Z
0x
1w
1W
0X
0]
0^
1[
0\
1<
0=
1]
1^
1_
0)
1(
0_
#152500
0!
05
0Y
0K
0Z
#153125
1!
15
1Y
1K
1Z
1x
1X
0[
1\
1=
0]
0^
1)
1_
#153750
0!
05
0Y
0K
0Z
#154375
1!
15
1Y
1K
1Z
0x
0w
1v
1V
0W
0X
0_
1`
1]
1^
1[
0\
1;
0<
0=
0]
1_
0`
0a
0c
0)
0(
1'
0d
1e
1a
1c
1d
0e
0f
0g
0h
1i
1f
1g
1h
0i
1j
0j
#155000
0!
05
0Y
0K
0Z
#155625
1!
15
1Y
1K
1Z
1x
1X
0[
1\
1=
1]
1)
#156250
0!
05
0Y
0K
0Z
#156875
1!
15
1Y
1K
1Z
0x
1w
1W
0X
0]
0^
1[
0\
1<
0=
1]
1^
0_
1`
0)
1(
0a
0c
1_
0`
1a
1c
0d
1e
0f
0g
1d
0e
1f
1g
0h
1i
1j
1h
0i
0j
#157500
0!
05
0Y
0K
0Z
#158125
1!
15
1Y
1K
1Z
1x
1X
0[
1\
1n
1=
0]
0^
1)
0_
1`
0a
0c
0d
1e
0f
0g
0h
1i
1j
#158750
0!
05
0Y
0K
0Z
#159375
1!
15
1Y
1K
1Z
0x
0w
0v
0u
0t
0s
0r
1q
1Q
0R
0S
0T
0U
0V
0W
0X
0j
1h
0i
1f
1g
1d
0e
1a
1c
1_
0`
1]
1^
1[
0\
1b
0n
16
07
08
09
0:
0;
0<
0=
0]
0_
0a
0d
0f
0h
1j
0)
0(
0'
0&
0%
0$
0#
1"
#160000
0!
05
0Y
0K
0Z
#160625
1!
15
1Y
1K
1Z
1x
1X
0[
1\
0b
1=
1]
1)
#161250
0!
05
0Y
0K
0Z
#161875
1!
15
1Y
1K
1Z
0x
1w
1W
0X
0]
0^
1[
0\
1<
0=
1]
1^
1_
0)
1(
0_
#162500
0!
05
0Y
0K
0Z
#163125
1!
15
1Y
1K
1Z
1x
1X
0[
1\
1=
0]
0^
1)
1_
#163750
0!
05
0Y
0K
0Z
