waveform/simulation/qsim/waveform.msim.vcd
$comment
	File created using the following command:
		vcd file waveform.msim.vcd -direction
$end
$date
	Mon Apr 15 01:19:47 2024
$end
$version
	ModelSim Version 10.5b
$end
$timescale
	1ps
$end

$scope module waveform_vhd_vec_tst $end
$var wire 1 ! clk $end
$var wire 1 " cnt [7] $end
$var wire 1 # cnt [6] $end
$var wire 1 $ cnt [5] $end
$var wire 1 % cnt [4] $end
$var wire 1 & cnt [3] $end
$var wire 1 ' cnt [2] $end
$var wire 1 ( cnt [1] $end
$var wire 1 ) cnt [0] $end
$var wire 1 * f_out $end

$scope module i1 $end
$var wire 1 + gnd $end
$var wire 1 , vcc $end
$var wire 1 - unknown $end
$var wire 1 . devoe $end
$var wire 1 / devclrn $end
$var wire 1 0 devpor $end
$var wire 1 1 ww_devoe $end
$var wire 1 2 ww_devclrn $end
$var wire 1 3 ww_devpor $end
$var wire 1 4 ww_clk $end
$var wire 1 5 ww_f_out $end
$var wire 1 6 ww_cnt [7] $end
$var wire 1 7 ww_cnt [6] $end
$var wire 1 8 ww_cnt [5] $end
$var wire 1 9 ww_cnt [4] $end
$var wire 1 : ww_cnt [3] $end
$var wire 1 ; ww_cnt [2] $end
$var wire 1 < ww_cnt [1] $end
$var wire 1 = ww_cnt [0] $end
$var wire 1 > \~QUARTUS_CREATED_ADC1~_CHSEL_bus\ [4] $end
$var wire 1 ? \~QUARTUS_CREATED_ADC1~_CHSEL_bus\ [3] $end
$var wire 1 @ \~QUARTUS_CREATED_ADC1~_CHSEL_bus\ [2] $end
$var wire 1 A \~QUARTUS_CREATED_ADC1~_CHSEL_bus\ [1] $end
$var wire 1 B \~QUARTUS_CREATED_ADC1~_CHSEL_bus\ [0] $end
$var wire 1 C \~QUARTUS_CREATED_ADC2~_CHSEL_bus\ [4] $end
$var wire 1 D \~QUARTUS_CREATED_ADC2~_CHSEL_bus\ [3] $end
$var wire 1 E \~QUARTUS_CREATED_ADC2~_CHSEL_bus\ [2] $end
$var wire 1 F \~QUARTUS_CREATED_ADC2~_CHSEL_bus\ [1] $end
$var wire 1 G \~QUARTUS_CREATED_ADC2~_CHSEL_bus\ [0] $end
$var wire 1 H \clk~inputclkctrl_INCLK_bus\ [3] $end
$var wire 1 I \clk~inputclkctrl_INCLK_bus\ [2] $end
$var wire 1 J \clk~inputclkctrl_INCLK_bus\ [1] $end
$var wire 1 K \clk~inputclkctrl_INCLK_bus\ [0] $end
$var wire 1 L \~QUARTUS_CREATED_GND~I_combout\ $end
$var wire 1 M \~QUARTUS_CREATED_UNVM~~busy\ $end
$var wire 1 N \~QUARTUS_CREATED_ADC1~~eoc\ $end
$var wire 1 O \~QUARTUS_CREATED_ADC2~~eoc\ $end
$var wire 1 P \f_out~output_o\ $end
$var wire 1 Q \cnt[0]~output_o\ $end
$var wire 1 R \cnt[1]~output_o\ $end
$var wire 1 S \cnt[2]~output_o\ $end
$var wire 1 T \cnt[3]~output_o\ $end
$var wire 1 U \cnt[4]~output_o\ $end
$var wire 1 V \cnt[5]~output_o\ $end
$var wire 1 W \cnt[6]~output_o\ $end
$var wire 1 X \cnt[7]~output_o\ $end
$var wire 1 Y \clk~input_o\ $end
$var wire 1 Z \clk~inputclkctrl_outclk\ $end
$var wire 1 [ \x[0]~8_combout\ $end
$var wire 1 \ \x[0]~9\ $end
$var wire 1 ] \x[1]~10_combout\ $end
$var wire 1 ^ \x[1]~11\ $end
$var wire 1 _ \x[2]~12_combout\ $end
$var wire 1 ` \x[2]~13\ $end
$var wire 1 a \x[3]~14_combout\ $end
$var wire 1 b \x[3]~15\ $end
$var wire 1 c \x[4]~16_combout\ $end
$var wire 1 d \x[4]~17\ $end
$var wire 1 e \x[5]~18_combout\ $end
$var wire 1 f \x[5]~19\ $end
$var wire 1 g \x[6]~20_combout\ $end
$var wire 1 h \x[6]~21\ $end
$var wire 1 i \x[7]~22_combout\ $end
$var wire 1 j \LessThan0~0_combout\ $end
$var wire 1 k \LessThan0~1_combout\ $end
$var wire 1 l \f_out_tmp~0_combout\ $end
$var wire 1 m \f_out_tmp~q\ $end
$var wire 1 n x [7] $end
$var wire 1 o x [6] $end
$var wire 1 p x [5] $end
$var wire 1 q x [4] $end
$var wire 1 r x [3] $end
$var wire 1 s x [2] $end
$var wire 1 t x [1] $end
$var wire 1 u x [0] $end
$upscope $end
$upscope $end
$enddefinitions $end
#0
$dumpvars
0!
0*
0+
1,
x-
1.
1/
10
11
12
13
04
05
0L
zM
zN
zO
0P
0Q
0R
0S
0T
0U
0V
0W
0X
0Y
0Z
1[
0\
0]
1^
0_
0`
0a
1b
0c
0d
0e
1f
0g
0h
0i
1j
0k
0l
0m
0"
0#
0$
0%
0&
0'
0(
0)
06
07
08
09
0:
0;
0<
0=
0n
0o
0p
0q
0r
0s
0t
0u
1H
1I
1J
0K
0>
0?
0@
0A
0B
0C
0D
0E
0F
0G
$end
#10000
1!
14
1Y
1K
1Z
1u
1Q
0[
1\
1=
1]
1)
#20000
0!
04
0Y
0K
0Z
#30000
1!
14
1Y
1K
1Z
0u
1t
1R
0Q
0]
0^
0j
1[
0\
1<
0=
1]
1^
1_
0)
1(
0_
#40000
0!
04
0Y
0K
0Z
#50000
1!
14
1Y
1K
1Z
1u
1Q
0[
1\
1=
0]
0^
1)
1_
#60000
0!
04
0Y
0K
0Z
#70000
1!
14
1Y
1K
1Z
0u
0t
1s
1S
0R
0Q
0_
1`
1]
1^
1[
0\
1;
0<
0=
0]
1_
0`
1a
0)
0(
1'
0a
#80000
0!
04
0Y
0K
0Z
#90000
1!
14
1Y
1K
1Z
1u
1Q
0[
1\
1=
1]
1)
#100000
0!
04
0Y
0K
0Z
#110000
1!
14
1Y
1K
1Z
0u
1t
1R
0Q
0]
0^
1[
0\
1<
0=
1]
1^
0_
1`
0)
1(
1a
1_
0`
0a
#120000
0!
04
0Y
0K
0Z
#130000
1!
14
1Y
1K
1Z
1u
1Q
0[
1\
1=
0]
0^
1)
0_
1`
1a
#140000
0!
04
0Y
0K
0Z
#150000
1!
14
1Y
1K
1Z
0u
0t
0s
1r
1T
0S
0R
0Q
0a
0b
1_
0`
1]
1^
1[
0\
1:
0;
0<
0=
0]
0_
1a
1b
1c
0)
0(
0'
1&
0c
#160000
0!
04
0Y
0K
0Z
#170000
1!
14
1Y
1K
1Z
1u
1Q
0[
1\
1=
1]
1)
#180000
0!
04
0Y
0K
0Z
#190000
1!
14
1Y
1K
1Z
0u
1t
1R
0Q
0]
0^
1[
0\
1<
0=
1]
1^
1_
0)
1(
0_
#200000
0!
04
0Y
0K
0Z
#210000
1!
14
1Y
1K
1Z
1u
1Q
0[
1\
1=
0]
0^
1)
1_
#220000
0!
04
0Y
0K
0Z
#230000
1!
14
1Y
1K
1Z
0u
0t
1s
1S
0R
0Q
0_
1`
1]
1^
1[
0\
1;
0<
0=
0]
1_
0`
0a
0b
0)
0(
1'
1c
1a
1b
0c
#240000
0!
04
0Y
0K
0Z
#250000
1!
14
1Y
1K
1Z
1u
1Q
0[
1\
1=
1]
1)
#260000
0!
04
0Y
0K
0Z
#270000
1!
14
1Y
1K
1Z
0u
1t
1R
0Q
0]
0^
1[
0\
1<
0=
1]
1^
0_
1`
0)
1(
0a
0b
1_
0`
1a
1b
1c
0c
#280000
0!
04
0Y
0K
0Z
#290000
1!
14
1Y
1K
1Z
1u
1Q
0[
1\
1=
0]
0^
1)
0_
1`
0a
0b
1c
#300000
0!
04
0Y
0K
0Z
#310000
1!
14
1Y
1K
1Z
0u
0t
0s
0r
1q
1U
0T
0S
0R
0Q
0c
1d
1a
1b
1_
0`
1]
1^
1[
0\
19
0:
0;
0<
0=
0]
0_
0a
1c
0d
1e
0)
0(
0'
0&
1%
0e
#320000
0!
04
0Y
0K
0Z
#330000
1!
14
1Y
1K
1Z
1u
1Q
0[
1\
1=
1]
1)
#340000
0!
04
0Y
0K
0Z
#350000
1!
14
1Y
1K
1Z
0u
1t
1R
0Q
0]
0^
1[
0\
1<
0=
1]
1^
1_
0)
1(
0_
#360000
0!
04
0Y
0K
0Z
#370000
1!
14
1Y
1K
1Z
1u
1Q
0[
1\
1=
0]
0^
1)
1_
#380000
0!
04
0Y
0K
0Z
#390000
1!
14
1Y
1K
1Z
0u
0t
1s
1S
0R
0Q
0_
1`
1]
1^
1[
0\
1;
0<
0=
0]
1_
0`
1a
0)
0(
1'
0a
#400000
0!
04
0Y
0K
0Z
#410000
1!
14
1Y
1K
1Z
1u
1Q
0[
1\
1=
1]
1)
#420000
0!
04
0Y
0K
0Z
#430000
1!
14
1Y
1K
1Z
0u
1t
1R
0Q
0]
0^
1[
0\
1<
0=
1]
1^
0_
1`
0)
1(
1a
1_
0`
0a
#440000
0!
04
0Y
0K
0Z
#450000
1!
14
1Y
1K
1Z
1u
1Q
0[
1\
1=
0]
0^
1)
0_
1`
1a
#460000
0!
04
0Y
0K
0Z
#470000
1!
14
1Y
1K
1Z
0u
0t
0s
1r
1T
0S
0R
0Q
0a
0b
1_
0`
1]
1^
1[
0\
1:
0;
0<
0=
0]
0_
1a
1b
0c
1d
0)
0(
0'
1&
1e
1c
0d
0e
#480000
0!
04
0Y
0K
0Z
#490000
1!
14
1Y
1K
1Z
1u
1Q
0[
1\
1=
1]
1)
#500000
0!
04
0Y
0K
0Z
#510000
1!
14
1Y
1K
1Z
0u
1t
1R
0Q
0]
0^
1[
0\
1<
0=
1]
1^
1_
0)
1(
0_
#520000
0!
04
0Y
0K
0Z
#530000
1!
14
1Y
1K
1Z
1u
1Q
0[
1\
1=
0]
0^
1)
1_
#540000
0!
04
0Y
0K
0Z
#550000
1!
14
1Y
1K
1Z
0u
0t
1s
1S
0R
0Q
0_
1`
1]
1^
1[
0\
1;
0<
0=
0]
1_
0`
0a
0b
0)
0(
1'
0c
1d
1a
1b
1c
0d
1e
0e
#560000
0!
04
0Y
0K
0Z
#570000
1!
14
1Y
1K
1Z
1u
1Q
0[
1\
1=
1]
1)
#580000
0!
04
0Y
0K
0Z
#590000
1!
14
1Y
1K
1Z
0u
1t
1R
0Q
0]
0^
1[
0\
1<
0=
1]
1^
0_
1`
0)
1(
0a
0b
1_
0`
1a
1b
0c
1d
1e
1c
0d
0e
#600000
0!
04
0Y
0K
0Z
#610000
1!
14
1Y
1K
1Z
1u
1Q
0[
1\
1=
0]
0^
1)
0_
1`
0a
0b
0c
1d
1e
#620000
0!
04
0Y
0K
0Z
#630000
1!
14
1Y
1K
1Z
0u
0t
0s
0r
0q
1p
1V
0U
0T
0S
0R
0Q
0e
0f
1c
0d
1a
1b
1_
0`
1]
1^
1j
1[
0\
18
09
0:
0;
0<
0=
0]
0_
0a
0c
1e
1f
1g
0)
0(
0'
0&
0%
1$
0g
#640000
0!
04
0Y
0K
0Z
#650000
1!
14
1Y
1K
1Z
1u
1Q
0[
1\
1=
1]
1)
#660000
0!
04
0Y
0K
0Z
#670000
1!
14
1Y
1K
1Z
0u
1t
1R
0Q
0]
0^
0j
1[
0\
1<
0=
1]
1^
1_
0)
1(
0_
#680000
0!
04
0Y
0K
0Z
#690000
1!
14
1Y
1K
1Z
1u
1Q
0[
1\
1=
0]
0^
1)
1_
#700000
0!
04
0Y
0K
0Z
#710000
1!
14
1Y
1K
1Z
0u
0t
1s
1S
0R
0Q
0_
1`
1]
1^
1[
0\
1;
0<
0=
0]
1_
0`
1a
0)
0(
1'
0a
#720000
0!
04
0Y
0K
0Z
#730000
1!
14
1Y
1K
1Z
1u
1Q
0[
1\
1=
1]
1)
#740000
0!
04
0Y
0K
0Z
#750000
1!
14
1Y
1K
1Z
0u
1t
1R
0Q
0]
0^
1[
0\
1<
0=
1]
1^
0_
1`
0)
1(
1a
1_
0`
0a
#760000
0!
04
0Y
0K
0Z
#770000
1!
14
1Y
1K
1Z
1u
1Q
0[
1\
1=
0]
0^
1)
0_
1`
1a
#780000
0!
04
0Y
0K
0Z
#790000
1!
14
1Y
1K
1Z
0u
0t
0s
1r
1T
0S
0R
0Q
0a
0b
1_
0`
1]
1^
1[
0\
1:
0;
0<
0=
0]
0_
1a
1b
1c
0)
0(
0'
1&
0c
#800000
0!
04
0Y
0K
0Z
#810000
1!
14
1Y
1K
1Z
1u
1Q
0[
1\
1=
1]
1)
#820000
0!
04
0Y
0K
0Z
#830000
1!
14
1Y
1K
1Z
0u
1t
1R
0Q
0]
0^
1[
0\
1<
0=
1]
1^
1_
0)
1(
0_
#840000
0!
04
0Y
0K
0Z
#850000
1!
14
1Y
1K
1Z
1u
1Q
0[
1\
1=
0]
0^
1)
1_
#860000
0!
04
0Y
0K
0Z
#870000
1!
14
1Y
1K
1Z
0u
0t
1s
1S
0R
0Q
0_
1`
1]
1^
1[
0\
1;
0<
0=
0]
1_
0`
0a
0b
0)
0(
1'
1c
1a
1b
0c
#880000
0!
04
0Y
0K
0Z
#890000
1!
14
1Y
1K
1Z
1u
1Q
0[
1\
1=
1]
1)
#900000
0!
04
0Y
0K
0Z
#910000
1!
14
1Y
1K
1Z
0u
1t
1R
0Q
0]
0^
1[
0\
1<
0=
1]
1^
0_
1`
0)
1(
0a
0b
1_
0`
1a
1b
1c
0c
#920000
0!
04
0Y
0K
0Z
#930000
1!
14
1Y
1K
1Z
1u
1Q
0[
1\
1=
0]
0^
1)
0_
1`
0a
0b
1c
#940000
0!
04
0Y
0K
0Z
#950000
1!
14
1Y
1K
1Z
0u
0t
0s
0r
1q
1U
0T
0S
0R
0Q
0c
1d
1a
1b
1_
0`
1]
1^
1[
0\
19
0:
0;
0<
0=
0]
0_
0a
1c
0d
0e
0f
0)
0(
0'
0&
1%
1g
1e
1f
0g
#960000
0!
04
0Y
0K
0Z
#970000
1!
14
1Y
1K
1Z
1u
1Q
0[
1\
1=
1]
1)
#980000
0!
04
0Y
0K
0Z
#990000
1!
14
1Y
1K
1Z
0u
1t
1R
0Q
0]
0^
1[
0\
1<
0=
1]
1^
1_
0)
1(
0_
#1000000
0!
04
0Y
0K
0Z
#1010000
1!
14
1Y
1K
1Z
1u
1Q
0[
1\
1=
0]
0^
1)
1_
#1020000
0!
04
0Y
0K
0Z
#1030000
1!
14
1Y
1K
1Z
0u
0t
1s
1S
0R
0Q
0_
1`
1]
1^
1[
0\
1;
0<
0=
0]
1_
0`
1a
0)
0(
1'
0a
#1040000
0!
04
0Y
0K
0Z
#1050000
1!
14
1Y
1K
1Z
1u
1Q
0[
1\
1=
1]
1)
#1060000
0!
04
0Y
0K
0Z
#1070000
1!
14
1Y
1K
1Z
0u
1t
1R
0Q
0]
0^
1[
0\
1<
0=
1]
1^
0_
1`
0)
1(
1a
1_
0`
0a
#1080000
0!
04
0Y
0K
0Z
#1090000
1!
14
1Y
1K
1Z
1u
1Q
0[
1\
1=
0]
0^
1)
0_
1`
1a
#1100000
0!
04
0Y
0K
0Z
#1110000
1!
14
1Y
1K
1Z
0u
0t
0s
1r
1T
0S
0R
0Q
0a
0b
1_
0`
1]
1^
1[
0\
1:
0;
0<
0=
0]
0_
1a
1b
0c
1d
0)
0(
0'
1&
0e
0f
1c
0d
1e
1f
1g
0g
#1120000
0!
04
0Y
0K
0Z
#1130000
1!
14
1Y
1K
1Z
1u
1Q
0[
1\
1=
1]
1)
#1140000
0!
04
0Y
0K
0Z
#1150000
1!
14
1Y
1K
1Z
0u
1t
1R
0Q
0]
0^
1[
0\
1<
0=
1]
1^
1_
0)
1(
0_
#1160000
0!
04
0Y
0K
0Z
#1170000
1!
14
1Y
1K
1Z
1u
1Q
0[
1\
1=
0]
0^
1)
1_
#1180000
0!
04
0Y
0K
0Z
#1190000
1!
14
1Y
1K
1Z
0u
0t
1s
1S
0R
0Q
0_
1`
1]
1^
1[
0\
1;
0<
0=
0]
1_
0`
0a
0b
0)
0(
1'
0c
1d
1a
1b
1c
0d
0e
0f
1g
1e
1f
0g
#1200000
0!
04
0Y
0K
0Z
#1210000
1!
14
1Y
1K
1Z
1u
1Q
0[
1\
1=
1]
1)
#1220000
0!
04
0Y
0K
0Z
#1230000
1!
14
1Y
1K
1Z
0u
1t
1R
0Q
0]
0^
1[
0\
1<
0=
1]
1^
0_
1`
0)
1(
0a
0b
1_
0`
1a
1b
0c
1d
0e
0f
1c
0d
1e
1f
1g
0g
#1240000
0!
04
0Y
0K
0Z
#1250000
1!
14
1Y
1K
1Z
1u
1Q
0[
1\
1=
0]
0^
1)
0_
1`
0a
0b
0c
1d
0e
0f
1g
#1260000
0!
04
0Y
0K
0Z
#1270000
1!
14
1Y
1K
1Z
0u
0t
0s
0r
0q
0p
1o
1W
0V
0U
0T
0S
0R
0Q
0g
1h
1e
1f
1c
0d
1a
1b
1_
0`
1]
1^
1j
1[
0\
17
08
09
0:
0;
0<
0=
0]
0_
0a
0c
0e
1g
0h
1i
0)
0(
0'
0&
0%
0$
1#
0i
#1280000
0!
04
0Y
0K
0Z
#1290000
1!
14
1Y
1K
1Z
1u
1Q
0[
1\
1=
1]
1)
#1300000
0!
04
0Y
0K
0Z
#1310000
1!
14
1Y
1K
1Z
0u
1t
1R
0Q
0]
0^
0j
1[
0\
1<
0=
1]
1^
1_
0)
1(
0_
#1320000
0!
04
0Y
0K
0Z
#1330000
1!
14
1Y
1K
1Z
1u
1Q
0[
1\
1=
0]
0^
1)
1_
#1340000
0!
04
0Y
0K
0Z
#1350000
1!
14
1Y
1K
1Z
0u
0t
1s
1S
0R
0Q
0_
1`
1]
1^
1[
0\
1;
0<
0=
0]
1_
0`
1a
0)
0(
1'
0a
#1360000
0!
04
0Y
0K
0Z
#1370000
1!
14
1Y
1K
1Z
1u
1Q
0[
1\
1=
1]
1)
#1380000
0!
04
0Y
0K
0Z
#1390000
1!
14
1Y
1K
1Z
0u
1t
1R
0Q
0]
0^
1[
0\
1<
0=
1]
1^
0_
1`
0)
1(
1a
1_
0`
0a
#1400000
0!
04
0Y
0K
0Z
#1410000
1!
14
1Y
1K
1Z
1u
1Q
0[
1\
1=
0]
0^
1)
0_
1`
1a
#1420000
0!
04
0Y
0K
0Z
#1430000
1!
14
1Y
1K
1Z
0u
0t
0s
1r
1T
0S
0R
0Q
0a
0b
1_
0`
1]
1^
1[
0\
1:
0;
0<
0=
0]
0_
1a
1b
1c
0)
0(
0'
1&
0c
#1440000
0!
04
0Y
0K
0Z
#1450000
1!
14
1Y
1K
1Z
1u
1Q
0[
1\
1=
1]
1)
#1460000
0!
04
0Y
0K
0Z
#1470000
1!
14
1Y
1K
1Z
0u
1t
1R
0Q
0]
0^
1[
0\
1<
0=
1]
1^
1_
0)
1(
0_
#1480000
0!
04
0Y
0K
0Z
#1490000
1!
14
1Y
1K
1Z
1u
1Q
0[
1\
1=
0]
0^
1)
1_
#1500000
0!
04
0Y
0K
0Z
#1510000
1!
14
1Y
1K
1Z
0u
0t
1s
1S
0R
0Q
0_
1`
1]
1^
1[
0\
1;
0<
0=
0]
1_
0`
0a
0b
0)
0(
1'
1c
1a
1b
0c
#1520000
0!
04
0Y
0K
0Z
#1530000
1!
14
1Y
1K
1Z
1u
1Q
0[
1\
1=
1]
1)
#1540000
0!
04
0Y
0K
0Z
#1550000
1!
14
1Y
1K
1Z
0u
1t
1R
0Q
0]
0^
1[
0\
1<
0=
1]
1^
0_
1`
0)
1(
0a
0b
1_
0`
1a
1b
1c
0c
#1560000
0!
04
0Y
0K
0Z
#1570000
1!
14
1Y
1K
1Z
1u
1Q
0[
1\
1=
0]
0^
1)
0_
1`
0a
0b
1c
#1580000
0!
04
0Y
0K
0Z
#1590000
1!
14
1Y
1K
1Z
0u
0t
0s
0r
1q
1U
0T
0S
0R
0Q
0c
1d
1a
1b
1_
0`
1]
1^
1[
0\
19
0:
0;
0<
0=
0]
0_
0a
1c
0d
1e
0)
0(
0'
0&
1%
0e
#1600000
0!
04
0Y
0K
0Z
#1610000
1!
14
1Y
1K
1Z
1u
1Q
0[
1\
1=
1]
1)
#1620000
0!
04
0Y
0K
0Z
#1630000
1!
14
1Y
1K
1Z
0u
1t
1R
0Q
0]
0^
1[
0\
1<
0=
1]
1^
1_
0)
1(
0_
#1640000
0!
04
0Y
0K
0Z
#1650000
1!
14
1Y
1K
1Z
1u
1Q
0[
1\
1=
0]
0^
1)
1_
#1660000
0!
04
0Y
0K
0Z
#1670000
1!
14
1Y
1K
1Z
0u
0t
1s
1S
0R
0Q
0_
1`
1]
1^
1[
0\
1;
0<
0=
0]
1_
0`
1a
0)
0(
1'
0a
#1680000
0!
04
0Y
0K
0Z
#1690000
1!
14
1Y
1K
1Z
1u
1Q
0[
1\
1=
1]
1)
#1700000
0!
04
0Y
0K
0Z
#1710000
1!
14
1Y
1K
1Z
0u
1t
1R
0Q
0]
0^
1[
0\
1<
0=
1]
1^
0_
1`
0)
1(
1a
1_
0`
0a
#1720000
0!
04
0Y
0K
0Z
#1730000
1!
14
1Y
1K
1Z
1u
1Q
0[
1\
1=
0]
0^
1)
0_
1`
1a
#1740000
0!
04
0Y
0K
0Z
#1750000
1!
14
1Y
1K
1Z
0u
0t
0s
1r
1T
0S
0R
0Q
0a
0b
1_
0`
1]
1^
1[
0\
1:
0;
0<
0=
0]
0_
1a
1b
0c
1d
0)
0(
0'
1&
1e
1c
0d
0e
#1760000
0!
04
0Y
0K
0Z
#1770000
1!
14
1Y
1K
1Z
1u
1Q
0[
1\
1=
1]
1)
#1780000
0!
04
0Y
0K
0Z
#1790000
1!
14
1Y
1K
1Z
0u
1t
1R
0Q
0]
0^
1[
0\
1<
0=
1]
1^
1_
0)
1(
0_
#1800000
0!
04
0Y
0K
0Z
#1810000
1!
14
1Y
1K
1Z
1u
1Q
0[
1\
1=
0]
0^
1)
1_
#1820000
0!
04
0Y
0K
0Z
#1830000
1!
14
1Y
1K
1Z
0u
0t
1s
1S
0R
0Q
0_
1`
1]
1^
1[
0\
1;
0<
0=
0]
1_
0`
0a
0b
0)
0(
1'
0c
1d
1a
1b
1c
0d
1e
0e
#1840000
0!
04
0Y
0K
0Z
#1850000
1!
14
1Y
1K
1Z
1u
1Q
0[
1\
1=
1]
1)
#1860000
0!
04
0Y
0K
0Z
#1870000
1!
14
1Y
1K
1Z
0u
1t
1R
0Q
0]
0^
1[
0\
1<
0=
1]
1^
0_
1`
0)
1(
0a
0b
1_
0`
1a
1b
0c
1d
1e
1c
0d
0e
#1880000
0!
04
0Y
0K
0Z
#1890000
1!
14
1Y
1K
1Z
1u
1Q
0[
1\
1=
0]
0^
1)
0_
1`
0a
0b
0c
1d
1e
#1900000
0!
04
0Y
0K
0Z
#1910000
1!
14
1Y
1K
1Z
0u
0t
0s
0r
0q
1p
1V
0U
0T
0S
0R
0Q
0e
0f
1c
0d
1a
1b
1_
0`
1]
1^
1j
1[
0\
18
09
0:
0;
0<
0=
0]
0_
0a
0c
1e
1f
0g
1h
0)
0(
0'
0&
0%
1$
1i
1g
0h
0i
#1920000
0!
04
0Y
0K
0Z
#1930000
1!
14
1Y
1K
1Z
1u
1Q
0[
1\
1=
1]
1)
#1940000
0!
04
0Y
0K
0Z
#1950000
1!
14
1Y
1K
1Z
0u
1t
1R
0Q
0]
0^
0j
1[
0\
1<
0=
1]
1^
1_
0)
1(
0_
#1960000
0!
04
0Y
0K
0Z
#1970000
1!
14
1Y
1K
1Z
1u
1Q
0[
1\
1=
0]
0^
1)
1_
#1980000
0!
04
0Y
0K
0Z
#1990000
1!
14
1Y
1K
1Z
0u
0t
1s
1S
0R
0Q
0_
1`
1]
1^
1[
0\
1;
0<
0=
0]
1_
0`
1a
0)
0(
1'
0a
#2000000
0!
04
0Y
0K
0Z
#2010000
1!
14
1Y
1K
1Z
1u
1Q
0[
1\
1=
1]
1)
#2020000
0!
04
0Y
0K
0Z
#2030000
1!
14
1Y
1K
1Z
0u
1t
1R
0Q
0]
0^
1[
0\
1<
0=
1]
1^
0_
1`
0)
1(
1a
1_
0`
0a
#2040000
0!
04
0Y
0K
0Z
#2050000
1!
14
1Y
1K
1Z
1u
1Q
0[
1\
1=
0]
0^
1)
0_
1`
1a
#2060000
0!
04
0Y
0K
0Z
#2070000
1!
14
1Y
1K
1Z
0u
0t
0s
1r
1T
0S
0R
0Q
0a
0b
1_
0`
1]
1^
1[
0\
1:
0;
0<
0=
0]
0_
1a
1b
1c
0)
0(
0'
1&
0c
#2080000
0!
04
0Y
0K
0Z
#2090000
1!
14
1Y
1K
1Z
1u
1Q
0[
1\
1=
1]
1)
#2100000
0!
04
0Y
0K
0Z
#2110000
1!
14
1Y
1K
1Z
0u
1t
1R
0Q
0]
0^
1[
0\
1<
0=
1]
1^
1_
0)
1(
0_
#2120000
0!
04
0Y
0K
0Z
#2130000
1!
14
1Y
1K
1Z
1u
1Q
0[
1\
1=
0]
0^
1)
1_
#2140000
0!
04
0Y
0K
0Z
#2150000
1!
14
1Y
1K
1Z
0u
0t
1s
1S
0R
0Q
0_
1`
1]
1^
1[
0\
1;
0<
0=
0]
1_
0`
0a
0b
0)
0(
1'
1c
1a
1b
0c
#2160000
0!
04
0Y
0K
0Z
#2170000
1!
14
1Y
1K
1Z
1u
1Q
0[
1\
1=
1]
1)
#2180000
0!
04
0Y
0K
0Z
#2190000
1!
14
1Y
1K
1Z
0u
1t
1R
0Q
0]
0^
1[
0\
1<
0=
1]
1^
0_
1`
0)
1(
0a
0b
1_
0`
1a
1b
1c
0c
#2200000
0!
04
0Y
0K
0Z
#2210000
1!
14
1Y
1K
1Z
1u
1Q
0[
1\
1=
0]
0^
1)
0_
1`
0a
0b
1c
#2220000
0!
04
0Y
0K
0Z
#2230000
1!
14
1Y
1K
1Z
0u
0t
0s
0r
1q
1U
0T
0S
0R
0Q
0c
1d
1a
1b
1_
0`
1]
1^
1[
0\
19
0:
0;
0<
0=
0]
0_
0a
1c
0d
0e
0f
0)
0(
0'
0&
1%
0g
1h
1e
1f
1g
0h
1i
0i
#2240000
0!
04
0Y
0K
0Z
#2250000
1!
14
1Y
1K
1Z
1u
1Q
0[
1\
1=
1]
1)
#2260000
0!
04
0Y
0K
0Z
#2270000
1!
14
1Y
1K
1Z
0u
1t
1R
0Q
0]
0^
1[
0\
1<
0=
1]
1^
1_
0)
1(
0_
#2280000
0!
04
0Y
0K
0Z
#2290000
1!
14
1Y
1K
1Z
1u
1Q
0[
1\
1=
0]
0^
1)
1_
#2300000
0!
04
0Y
0K
0Z
#2310000
1!
14
1Y
1K
1Z
0u
0t
1s
1S
0R
0Q
0_
1`
1]
1^
1[
0\
1;
0<
0=
0]
1_
0`
1a
0)
0(
1'
0a
#2320000
0!
04
0Y
0K
0Z
#2330000
1!
14
1Y
1K
1Z
1u
1Q
0[
1\
1=
1]
1)
#2340000
0!
04
0Y
0K
0Z
#2350000
1!
14
1Y
1K
1Z
0u
1t
1R
0Q
0]
0^
1[
0\
1<
0=
1]
1^
0_
1`
0)
1(
1a
1_
0`
0a
#2360000
0!
04
0Y
0K
0Z
#2370000
1!
14
1Y
1K
1Z
1u
1Q
0[
1\
1=
0]
0^
1)
0_
1`
1a
#2380000
0!
04
0Y
0K
0Z
#2390000
1!
14
1Y
1K
1Z
0u
0t
0s
1r
1T
0S
0R
0Q
0a
0b
1_
0`
1]
1^
1[
0\
1:
0;
0<
0=
0]
0_
1a
1b
0c
1d
0)
0(
0'
1&
0e
0f
1c
0d
1e
1f
0g
1h
1i
1g
0h
0i
#2400000
0!
04
0Y
0K
0Z
#2410000
1!
14
1Y
1K
1Z
1u
1Q
0[
1\
1=
1]
1)
#2420000
0!
04
0Y
0K
0Z
#2430000
1!
14
1Y
1K
1Z
0u
1t
1R
0Q
0]
0^
1[
0\
1<
0=
1]
1^
1_
0)
1(
0_
#2440000
0!
04
0Y
0K
0Z
#2450000
1!
14
1Y
1K
1Z
1u
1Q
0[
1\
1=
0]
0^
1)
1_
#2460000
0!
04
0Y
0K
0Z
#2470000
1!
14
1Y
1K
1Z
0u
0t
1s
1S
0R
0Q
0_
1`
1]
1^
1[
0\
1;
0<
0=
0]
1_
0`
0a
0b
0)
0(
1'
0c
1d
1a
1b
1c
0d
0e
0f
0g
1h
1e
1f
1g
0h
1i
0i
#2480000
0!
04
0Y
0K
0Z
#2490000
1!
14
1Y
1K
1Z
1u
1Q
0[
1\
1=
1]
1)
#2500000
0!
04
0Y
0K
0Z
#2510000
1!
14
1Y
1K
1Z
0u
1t
1R
0Q
0]
0^
1[
0\
1<
0=
1]
1^
0_
1`
0)
1(
0a
0b
1_
0`
1a
1b
0c
1d
0e
0f
1c
0d
1e
1f
0g
1h
1i
1g
0h
0i
#2520000
0!
04
0Y
0K
0Z
#2530000
1!
14
1Y
1K
1Z
1u
1Q
0[
1\
1=
0]
0^
1)
0_
1`
0a
0b
0c
1d
0e
0f
0g
1h
1i
#2540000
0!
04
0Y
0K
0Z
#2550000
1!
14
1Y
1K
1Z
0u
0t
0s
0r
0q
0p
0o
1n
1X
0W
0V
0U
0T
0S
0R
0Q
0i
1g
0h
1e
1f
1c
0d
1a
1b
1_
0`
1]
1^
1j
1[
0\
16
07
08
09
0:
0;
0<
0=
0]
0_
0a
0c
0e
0g
1i
0)
0(
0'
0&
0%
0$
0#
1"
#2560000
0!
04
0Y
0K
0Z
#2570000
1!
14
1Y
1K
1Z
1u
1Q
0[
1\
1=
1]
1)
#2580000
0!
04
0Y
0K
0Z
#2590000
1!
14
1Y
1K
1Z
0u
1t
1R
0Q
0]
0^
0j
1[
0\
1<
0=
1]
1^
1_
0)
1(
0_
#2600000
0!
04
0Y
0K
0Z
#2610000
1!
14
1Y
1K
1Z
1u
1Q
0[
1\
1=
0]
0^
1)
1_
#2620000
0!
04
0Y
0K
0Z
#2630000
1!
14
1Y
1K
1Z
0u
0t
1s
1S
0R
0Q
0_
1`
1]
1^
1[
0\
1;
0<
0=
0]
1_
0`
1a
0)
0(
1'
0a
