DAC_SW/simulation/qsim/DAC_SW.msim.vcd
$comment
	File created using the following command:
		vcd file DAC_SW.msim.vcd -direction
$end
$date
	Fri Apr 05 16:48:46 2024
$end
$version
	ModelSim Version 10.5b
$end
$timescale
	1ps
$end

$scope module dac_sw_vhd_vec_tst $end
$var wire 1 ! b $end
$var wire 1 " b_blue $end
$var wire 1 # b_red $end
$var wire 1 $ clk $end
$var wire 1 % dac [7] $end
$var wire 1 & dac [6] $end
$var wire 1 ' dac [5] $end
$var wire 1 ( dac [4] $end
$var wire 1 ) dac [3] $end
$var wire 1 * dac [2] $end
$var wire 1 + dac [1] $end
$var wire 1 , dac [0] $end
$var wire 1 - highB [6] $end
$var wire 1 . highB [5] $end
$var wire 1 / highB [4] $end
$var wire 1 0 highB [3] $end
$var wire 1 1 highB [2] $end
$var wire 1 2 highB [1] $end
$var wire 1 3 highB [0] $end
$var wire 1 4 highC [6] $end
$var wire 1 5 highC [5] $end
$var wire 1 6 highC [4] $end
$var wire 1 7 highC [3] $end
$var wire 1 8 highC [2] $end
$var wire 1 9 highC [1] $end
$var wire 1 : highC [0] $end
$var wire 1 ; lowB [6] $end
$var wire 1 < lowB [5] $end
$var wire 1 = lowB [4] $end
$var wire 1 > lowB [3] $end
$var wire 1 ? lowB [2] $end
$var wire 1 @ lowB [1] $end
$var wire 1 A lowB [0] $end
$var wire 1 B lowC [6] $end
$var wire 1 C lowC [5] $end
$var wire 1 D lowC [4] $end
$var wire 1 E lowC [3] $end
$var wire 1 F lowC [2] $end
$var wire 1 G lowC [1] $end
$var wire 1 H lowC [0] $end
$var wire 1 I sw [7] $end
$var wire 1 J sw [6] $end
$var wire 1 K sw [5] $end
$var wire 1 L sw [4] $end
$var wire 1 M sw [3] $end
$var wire 1 N sw [2] $end
$var wire 1 O sw [1] $end
$var wire 1 P sw [0] $end

$scope module i1 $end
$var wire 1 Q gnd $end
$var wire 1 R vcc $end
$var wire 1 S unknown $end
$var wire 1 T devoe $end
$var wire 1 U devclrn $end
$var wire 1 V devpor $end
$var wire 1 W ww_devoe $end
$var wire 1 X ww_devclrn $end
$var wire 1 Y ww_devpor $end
$var wire 1 Z ww_b $end
$var wire 1 [ ww_b_red $end
$var wire 1 \ ww_b_blue $end
$var wire 1 ] ww_clk $end
$var wire 1 ^ ww_dac [7] $end
$var wire 1 _ ww_dac [6] $end
$var wire 1 ` ww_dac [5] $end
$var wire 1 a ww_dac [4] $end
$var wire 1 b ww_dac [3] $end
$var wire 1 c ww_dac [2] $end
$var wire 1 d ww_dac [1] $end
$var wire 1 e ww_dac [0] $end
$var wire 1 f ww_highB [6] $end
$var wire 1 g ww_highB [5] $end
$var wire 1 h ww_highB [4] $end
$var wire 1 i ww_highB [3] $end
$var wire 1 j ww_highB [2] $end
$var wire 1 k ww_highB [1] $end
$var wire 1 l ww_highB [0] $end
$var wire 1 m ww_highC [6] $end
$var wire 1 n ww_highC [5] $end
$var wire 1 o ww_highC [4] $end
$var wire 1 p ww_highC [3] $end
$var wire 1 q ww_highC [2] $end
$var wire 1 r ww_highC [1] $end
$var wire 1 s ww_highC [0] $end
$var wire 1 t ww_lowB [6] $end
$var wire 1 u ww_lowB [5] $end
$var wire 1 v ww_lowB [4] $end
$var wire 1 w ww_lowB [3] $end
$var wire 1 x ww_lowB [2] $end
$var wire 1 y ww_lowB [1] $end
$var wire 1 z ww_lowB [0] $end
$var wire 1 { ww_lowC [6] $end
$var wire 1 | ww_lowC [5] $end
$var wire 1 } ww_lowC [4] $end
$var wire 1 ~ ww_lowC [3] $end
$var wire 1 !! ww_lowC [2] $end
$var wire 1 "! ww_lowC [1] $end
$var wire 1 #! ww_lowC [0] $end
$var wire 1 $! ww_sw [7] $end
$var wire 1 %! ww_sw [6] $end
$var wire 1 &! ww_sw [5] $end
$var wire 1 '! ww_sw [4] $end
$var wire 1 (! ww_sw [3] $end
$var wire 1 )! ww_sw [2] $end
$var wire 1 *! ww_sw [1] $end
$var wire 1 +! ww_sw [0] $end
$var wire 1 ,! \~QUARTUS_CREATED_ADC1~_CHSEL_bus\ [4] $end
$var wire 1 -! \~QUARTUS_CREATED_ADC1~_CHSEL_bus\ [3] $end
$var wire 1 .! \~QUARTUS_CREATED_ADC1~_CHSEL_bus\ [2] $end
$var wire 1 /! \~QUARTUS_CREATED_ADC1~_CHSEL_bus\ [1] $end
$var wire 1 0! \~QUARTUS_CREATED_ADC1~_CHSEL_bus\ [0] $end
$var wire 1 1! \~QUARTUS_CREATED_ADC2~_CHSEL_bus\ [4] $end
$var wire 1 2! \~QUARTUS_CREATED_ADC2~_CHSEL_bus\ [3] $end
$var wire 1 3! \~QUARTUS_CREATED_ADC2~_CHSEL_bus\ [2] $end
$var wire 1 4! \~QUARTUS_CREATED_ADC2~_CHSEL_bus\ [1] $end
$var wire 1 5! \~QUARTUS_CREATED_ADC2~_CHSEL_bus\ [0] $end
$var wire 1 6! \inst|y~clkctrl_INCLK_bus\ [3] $end
$var wire 1 7! \inst|y~clkctrl_INCLK_bus\ [2] $end
$var wire 1 8! \inst|y~clkctrl_INCLK_bus\ [1] $end
$var wire 1 9! \inst|y~clkctrl_INCLK_bus\ [0] $end
$var wire 1 :! \clk~inputclkctrl_INCLK_bus\ [3] $end
$var wire 1 ;! \clk~inputclkctrl_INCLK_bus\ [2] $end
$var wire 1 <! \clk~inputclkctrl_INCLK_bus\ [1] $end
$var wire 1 =! \clk~inputclkctrl_INCLK_bus\ [0] $end
$var wire 1 >! \sw[7]~input_o\ $end
$var wire 1 ?! \sw[6]~input_o\ $end
$var wire 1 @! \sw[5]~input_o\ $end
$var wire 1 A! \sw[4]~input_o\ $end
$var wire 1 B! \sw[3]~input_o\ $end
$var wire 1 C! \sw[2]~input_o\ $end
$var wire 1 D! \sw[1]~input_o\ $end
$var wire 1 E! \sw[0]~input_o\ $end
$var wire 1 F! \~QUARTUS_CREATED_GND~I_combout\ $end
$var wire 1 G! \~QUARTUS_CREATED_UNVM~~busy\ $end
$var wire 1 H! \~QUARTUS_CREATED_ADC1~~eoc\ $end
$var wire 1 I! \~QUARTUS_CREATED_ADC2~~eoc\ $end
$var wire 1 J! \b~output_o\ $end
$var wire 1 K! \dac[7]~output_o\ $end
$var wire 1 L! \dac[6]~output_o\ $end
$var wire 1 M! \dac[5]~output_o\ $end
$var wire 1 N! \dac[4]~output_o\ $end
$var wire 1 O! \dac[3]~output_o\ $end
$var wire 1 P! \dac[2]~output_o\ $end
$var wire 1 Q! \dac[1]~output_o\ $end
$var wire 1 R! \dac[0]~output_o\ $end
$var wire 1 S! \highB[6]~output_o\ $end
$var wire 1 T! \highB[5]~output_o\ $end
$var wire 1 U! \highB[4]~output_o\ $end
$var wire 1 V! \highB[3]~output_o\ $end
$var wire 1 W! \highB[2]~output_o\ $end
$var wire 1 X! \highB[1]~output_o\ $end
$var wire 1 Y! \highB[0]~output_o\ $end
$var wire 1 Z! \highC[6]~output_o\ $end
$var wire 1 [! \highC[5]~output_o\ $end
$var wire 1 \! \highC[4]~output_o\ $end
$var wire 1 ]! \highC[3]~output_o\ $end
$var wire 1 ^! \highC[2]~output_o\ $end
$var wire 1 _! \highC[1]~output_o\ $end
$var wire 1 `! \highC[0]~output_o\ $end
$var wire 1 a! \lowB[6]~output_o\ $end
$var wire 1 b! \lowB[5]~output_o\ $end
$var wire 1 c! \lowB[4]~output_o\ $end
$var wire 1 d! \lowB[3]~output_o\ $end
$var wire 1 e! \lowB[2]~output_o\ $end
$var wire 1 f! \lowB[1]~output_o\ $end
$var wire 1 g! \lowB[0]~output_o\ $end
$var wire 1 h! \lowC[6]~output_o\ $end
$var wire 1 i! \lowC[5]~output_o\ $end
$var wire 1 j! \lowC[4]~output_o\ $end
$var wire 1 k! \lowC[3]~output_o\ $end
$var wire 1 l! \lowC[2]~output_o\ $end
$var wire 1 m! \lowC[1]~output_o\ $end
$var wire 1 n! \lowC[0]~output_o\ $end
$var wire 1 o! \clk~input_o\ $end
$var wire 1 p! \clk~inputclkctrl_outclk\ $end
$var wire 1 q! \inst|cnt[0]~8_combout\ $end
$var wire 1 r! \inst|LessThan0~0_combout\ $end
$var wire 1 s! \inst|LessThan0~2_combout\ $end
$var wire 1 t! \inst|cnt[0]~9\ $end
$var wire 1 u! \inst|cnt[1]~10_combout\ $end
$var wire 1 v! \inst|cnt[1]~11\ $end
$var wire 1 w! \inst|cnt[2]~12_combout\ $end
$var wire 1 x! \inst|cnt[2]~13\ $end
$var wire 1 y! \inst|cnt[3]~14_combout\ $end
$var wire 1 z! \inst|cnt[3]~15\ $end
$var wire 1 {! \inst|cnt[4]~16_combout\ $end
$var wire 1 |! \inst|cnt[4]~17\ $end
$var wire 1 }! \inst|cnt[5]~18_combout\ $end
$var wire 1 ~! \inst|cnt[5]~19\ $end
$var wire 1 !" \inst|cnt[6]~20_combout\ $end
$var wire 1 "" \inst|cnt[6]~21\ $end
$var wire 1 #" \inst|cnt[7]~22_combout\ $end
$var wire 1 $" \inst|LessThan0~1_combout\ $end
$var wire 1 %" \inst|y~0_combout\ $end
$var wire 1 &" \inst|y~feeder_combout\ $end
$var wire 1 '" \inst|y~q\ $end
$var wire 1 (" \inst|y~clkctrl_outclk\ $end
$var wire 1 )" \inst2|cnt[0]~8_combout\ $end
$var wire 1 *" \inst2|cnt[0]~9\ $end
$var wire 1 +" \inst2|cnt[1]~10_combout\ $end
$var wire 1 ," \inst2|cnt[1]~11\ $end
$var wire 1 -" \inst2|cnt[2]~12_combout\ $end
$var wire 1 ." \inst2|cnt[2]~13\ $end
$var wire 1 /" \inst2|cnt[3]~14_combout\ $end
$var wire 1 0" \inst2|cnt[3]~15\ $end
$var wire 1 1" \inst2|cnt[4]~16_combout\ $end
$var wire 1 2" \inst2|cnt[4]~17\ $end
$var wire 1 3" \inst2|cnt[5]~18_combout\ $end
$var wire 1 4" \inst2|cnt[5]~19\ $end
$var wire 1 5" \inst2|cnt[6]~20_combout\ $end
$var wire 1 6" \inst2|Equal1~0_combout\ $end
$var wire 1 7" \inst2|Equal1~1_combout\ $end
$var wire 1 8" \inst2|Equal1~2_combout\ $end
$var wire 1 9" \inst2|comb~0_combout\ $end
$var wire 1 :" \inst2|comb~1_combout\ $end
$var wire 1 ;" \inst2|comb~2_combout\ $end
$var wire 1 <" \inst2|u_d~combout\ $end
$var wire 1 =" \inst2|cnt[6]~21\ $end
$var wire 1 >" \inst2|cnt[7]~22_combout\ $end
$var wire 1 ?" \b_blue~input_o\ $end
$var wire 1 @" \b_red~input_o\ $end
$var wire 1 A" \inst6|cnt[0]~10_combout\ $end
$var wire 1 B" \inst6|cnt[1]~4_cout\ $end
$var wire 1 C" \inst6|cnt[1]~5_combout\ $end
$var wire 1 D" \inst6|cnt~9_combout\ $end
$var wire 1 E" \inst6|cnt[1]~6\ $end
$var wire 1 F" \inst6|cnt[2]~7_combout\ $end
$var wire 1 G" \inst6|cnt[2]~8\ $end
$var wire 1 H" \inst6|cnt[3]~11_combout\ $end
$var wire 1 I" \inst8|Mux0~0_combout\ $end
$var wire 1 J" \inst8|Mux1~0_combout\ $end
$var wire 1 K" \inst8|Mux2~0_combout\ $end
$var wire 1 L" \inst8|Mux3~0_combout\ $end
$var wire 1 M" \inst8|Mux5~0_combout\ $end
$var wire 1 N" \inst8|Mux6~0_combout\ $end
$var wire 1 O" \inst10|Mux0~0_combout\ $end
$var wire 1 P" \inst10|Mux2~0_combout\ $end
$var wire 1 Q" \inst10|Mux3~0_combout\ $end
$var wire 1 R" \inst10|Mux5~0_combout\ $end
$var wire 1 S" \inst10|Mux6~0_combout\ $end
$var wire 1 T" \inst2|cnt\ [7] $end
$var wire 1 U" \inst2|cnt\ [6] $end
$var wire 1 V" \inst2|cnt\ [5] $end
$var wire 1 W" \inst2|cnt\ [4] $end
$var wire 1 X" \inst2|cnt\ [3] $end
$var wire 1 Y" \inst2|cnt\ [2] $end
$var wire 1 Z" \inst2|cnt\ [1] $end
$var wire 1 [" \inst2|cnt\ [0] $end
$var wire 1 \" \inst6|cnt\ [3] $end
$var wire 1 ]" \inst6|cnt\ [2] $end
$var wire 1 ^" \inst6|cnt\ [1] $end
$var wire 1 _" \inst6|cnt\ [0] $end
$var wire 1 `" \inst|cnt\ [7] $end
$var wire 1 a" \inst|cnt\ [6] $end
$var wire 1 b" \inst|cnt\ [5] $end
$var wire 1 c" \inst|cnt\ [4] $end
$var wire 1 d" \inst|cnt\ [3] $end
$var wire 1 e" \inst|cnt\ [2] $end
$var wire 1 f" \inst|cnt\ [1] $end
$var wire 1 g" \inst|cnt\ [0] $end
$var wire 1 h" \inst10|ALT_INV_Mux6~0_combout\ $end
$var wire 1 i" \inst10|ALT_INV_Mux5~0_combout\ $end
$var wire 1 j" \inst10|ALT_INV_Mux0~0_combout\ $end
$var wire 1 k" \inst8|ALT_INV_Mux6~0_combout\ $end
$upscope $end
$upscope $end
$enddefinitions $end
#0
$dumpvars
1!
x"
x#
0$
0Q
1R
xS
1T
1U
1V
1W
1X
1Y
1Z
x[
x\
0]
x>!
x?!
x@!
xA!
xB!
xC!
xD!
xE!
0F!
zG!
zH!
zI!
1J!
0K!
0L!
0M!
0N!
0O!
0P!
0Q!
0R!
0S!
0T!
0U!
0V!
0W!
0X!
1Y!
0Z!
0[!
0\!
0]!
0^!
0_!
1`!
0a!
0b!
0c!
0d!
0e!
0f!
1g!
1h!
0i!
0j!
1k!
1l!
1m!
1n!
0o!
0p!
1q!
1r!
0s!
0t!
0u!
1v!
0w!
0x!
0y!
1z!
0{!
0|!
0}!
1~!
0!"
0""
0#"
1$"
0%"
0&"
0'"
0("
1)"
0*"
0+"
1,"
0-"
0."
0/"
10"
01"
02"
03"
14"
05"
06"
07"
08"
19"
1:"
1;"
1<"
0="
0>"
x?"
x@"
xA"
0B"
xC"
xD"
1E"
xF"
0G"
xH"
0I"
0J"
0K"
0L"
0M"
0N"
0O"
0P"
1Q"
0R"
0S"
1h"
1i"
1j"
1k"
0^
0_
0`
0a
0b
0c
0d
0e
0f
0g
0h
0i
0j
0k
1l
0m
0n
0o
0p
0q
0r
1s
0t
0u
0v
0w
0x
0y
1z
1{
0|
0}
1~
1!!
1"!
1#!
x$!
x%!
x&!
x'!
x(!
x)!
x*!
x+!
0T"
0U"
0V"
0W"
0X"
0Y"
0Z"
0["
0\"
0]"
0^"
0_"
0`"
0a"
0b"
0c"
0d"
0e"
0f"
0g"
1:!
1;!
1<!
0=!
16!
17!
18!
09!
0,!
0-!
0.!
0/!
00!
01!
02!
03!
04!
05!
0%
0&
0'
0(
0)
0*
0+
0,
0-
0.
0/
00
01
02
13
04
05
06
07
08
09
1:
0;
0<
0=
0>
0?
0@
1A
1B
0C
0D
1E
1F
1G
1H
xI
xJ
xK
xL
xM
xN
xO
xP
$end
#5000
1$
1]
1o!
1=!
1p!
1g"
0q!
1t!
1u!
#10000
0$
0]
0o!
0=!
0p!
#15000
1$
1]
1o!
1=!
1p!
0g"
1f"
0u!
0v!
1q!
0t!
1u!
1v!
1w!
0w!
#20000
0$
0]
0o!
0=!
0p!
#25000
1$
1]
1o!
1=!
1p!
1g"
0q!
1t!
0u!
0v!
1w!
#30000
0$
0]
0o!
0=!
0p!
#35000
1$
1]
1o!
1=!
1p!
0g"
0f"
1e"
0w!
1x!
1u!
1v!
1q!
0t!
0u!
1w!
0x!
1y!
0y!
#40000
0$
0]
0o!
0=!
0p!
#45000
1$
1]
1o!
1=!
1p!
1g"
0q!
1t!
1u!
#50000
0$
0]
0o!
0=!
0p!
#55000
1$
1]
1o!
1=!
1p!
0g"
1f"
0u!
0v!
1q!
0t!
1u!
1v!
0w!
1x!
1y!
1w!
0x!
0y!
#60000
0$
0]
0o!
0=!
0p!
#65000
1$
1]
1o!
1=!
1p!
1g"
0q!
1t!
0u!
0v!
0w!
1x!
1y!
#70000
0$
0]
0o!
0=!
0p!
#75000
1$
1]
1o!
1=!
1p!
0g"
0f"
0e"
1d"
0y!
0z!
1w!
0x!
1u!
1v!
1q!
0t!
0u!
0w!
1y!
1z!
1{!
0{!
#80000
0$
0]
0o!
0=!
0p!
#85000
1$
1]
1o!
1=!
1p!
1g"
0q!
1t!
1u!
#90000
0$
0]
0o!
0=!
0p!
#95000
1$
1]
1o!
1=!
1p!
0g"
1f"
0u!
0v!
1q!
0t!
1u!
1v!
1w!
0w!
#100000
0$
0]
0o!
0=!
0p!
#105000
1$
1]
1o!
1=!
1p!
1g"
0q!
1t!
0u!
0v!
1w!
#110000
0$
0]
0o!
0=!
0p!
#115000
1$
1]
1o!
1=!
1p!
0g"
0f"
1e"
0w!
1x!
1u!
1v!
1q!
0t!
0u!
1w!
0x!
0y!
0z!
1{!
1y!
1z!
0{!
#120000
0$
0]
0o!
0=!
0p!
#125000
1$
1]
1o!
1=!
1p!
1g"
0q!
1t!
1u!
#130000
0$
0]
0o!
0=!
0p!
#135000
1$
1]
1o!
1=!
1p!
0g"
1f"
0u!
0v!
1q!
0t!
1u!
1v!
0w!
1x!
0y!
0z!
1w!
0x!
1y!
1z!
1{!
0{!
#140000
0$
0]
0o!
0=!
0p!
#145000
1$
1]
1o!
1=!
1p!
1g"
0q!
1t!
0r!
0u!
0v!
0w!
1x!
0y!
0z!
1{!
#150000
0$
0]
0o!
0=!
0p!
#155000
1$
1]
1o!
1=!
1p!
0g"
0f"
0e"
0d"
1c"
0{!
1|!
1y!
1z!
1w!
0x!
1u!
1v!
1q!
0t!
1r!
0u!
0w!
0y!
1{!
0|!
1}!
0}!
#160000
0$
0]
0o!
0=!
0p!
#165000
1$
1]
1o!
1=!
1p!
1g"
0q!
1t!
1u!
#170000
0$
0]
0o!
0=!
0p!
#175000
1$
1]
1o!
1=!
1p!
0g"
1f"
0u!
0v!
1q!
0t!
1u!
1v!
1w!
0w!
#180000
0$
0]
0o!
0=!
0p!
#185000
1$
1]
1o!
1=!
1p!
1g"
0q!
1t!
0u!
0v!
1w!
#190000
0$
0]
0o!
0=!
0p!
#195000
1$
1]
1o!
1=!
1p!
0g"
0f"
1e"
0w!
1x!
1u!
1v!
1q!
0t!
0u!
1w!
0x!
1y!
0y!
#200000
0$
0]
0o!
0=!
0p!
#205000
1$
1]
1o!
1=!
1p!
1g"
0q!
1t!
1u!
#210000
0$
0]
0o!
0=!
0p!
#215000
1$
1]
1o!
1=!
1p!
0g"
1f"
0u!
0v!
1q!
0t!
1u!
1v!
0w!
1x!
1y!
1w!
0x!
0y!
#220000
0$
0]
0o!
0=!
0p!
#225000
1$
1]
1o!
1=!
1p!
1g"
0q!
1t!
0u!
0v!
0w!
1x!
1y!
#230000
0$
0]
0o!
0=!
0p!
#235000
1$
1]
1o!
1=!
1p!
0g"
0f"
0e"
1d"
0y!
0z!
1w!
0x!
1u!
1v!
1q!
0t!
0u!
0w!
1y!
1z!
0{!
1|!
1}!
1{!
0|!
0}!
#240000
0$
0]
0o!
0=!
0p!
#245000
1$
1]
1o!
1=!
1p!
1g"
0q!
1t!
1u!
#250000
0$
0]
0o!
0=!
0p!
#255000
1$
1]
1o!
1=!
1p!
0g"
1f"
0u!
0v!
1q!
0t!
1u!
1v!
1w!
0w!
#260000
0$
0]
0o!
0=!
0p!
#265000
1$
1]
1o!
1=!
1p!
1g"
0q!
1t!
0u!
0v!
1w!
#270000
0$
0]
0o!
0=!
0p!
#275000
1$
1]
1o!
1=!
1p!
0g"
0f"
1e"
0w!
1x!
1u!
1v!
1q!
0t!
0u!
1w!
0x!
0y!
0z!
0{!
1|!
1y!
1z!
1{!
0|!
1}!
0}!
#280000
0$
0]
0o!
0=!
0p!
#285000
1$
1]
1o!
1=!
1p!
1g"
0q!
1t!
1u!
#290000
0$
0]
0o!
0=!
0p!
#295000
1$
1]
1o!
1=!
1p!
0g"
1f"
0u!
0v!
1q!
0t!
1u!
1v!
0w!
1x!
0y!
0z!
1w!
0x!
1y!
1z!
0{!
1|!
1}!
1{!
0|!
0}!
#300000
0$
0]
0o!
0=!
0p!
#305000
1$
1]
1o!
1=!
1p!
1g"
0q!
1t!
0r!
0u!
0v!
0w!
1x!
0y!
0z!
0{!
1|!
1}!
#310000
0$
0]
0o!
0=!
0p!
#315000
1$
1]
1o!
1=!
1p!
0g"
0f"
0e"
0d"
0c"
1b"
0}!
0~!
1{!
0|!
1y!
1z!
1w!
0x!
1u!
1v!
1q!
0t!
1r!
0u!
0w!
0y!
0{!
1}!
1~!
1!"
0!"
#320000
0$
0]
0o!
0=!
0p!
#325000
1$
1]
1o!
1=!
1p!
1g"
0q!
1t!
1u!
#330000
0$
0]
0o!
0=!
0p!
#335000
1$
1]
1o!
1=!
1p!
0g"
1f"
0u!
0v!
1q!
0t!
1u!
1v!
1w!
0w!
#340000
0$
0]
0o!
0=!
0p!
#345000
1$
1]
1o!
1=!
1p!
1g"
0q!
1t!
0u!
0v!
1w!
#350000
0$
0]
0o!
0=!
0p!
#355000
1$
1]
1o!
1=!
1p!
0g"
0f"
1e"
0w!
1x!
1u!
1v!
1q!
0t!
0u!
1w!
0x!
1y!
0y!
#360000
0$
0]
0o!
0=!
0p!
#365000
1$
1]
1o!
1=!
1p!
1g"
0q!
1t!
1u!
#370000
0$
0]
0o!
0=!
0p!
#375000
1$
1]
1o!
1=!
1p!
0g"
1f"
0u!
0v!
1q!
0t!
1u!
1v!
0w!
1x!
1y!
1w!
0x!
0y!
#380000
0$
0]
0o!
0=!
0p!
#385000
1$
1]
1o!
1=!
1p!
1g"
0q!
1t!
0u!
0v!
0w!
1x!
1y!
#390000
0$
0]
0o!
0=!
0p!
#395000
1$
1]
1o!
1=!
1p!
0g"
0f"
0e"
1d"
0y!
0z!
1w!
0x!
1u!
1v!
1q!
0t!
0u!
0w!
1y!
1z!
1{!
0{!
#400000
0$
0]
0o!
0=!
0p!
#405000
1$
1]
1o!
1=!
1p!
1g"
0q!
1t!
1u!
#410000
0$
0]
0o!
0=!
0p!
#415000
1$
1]
1o!
1=!
1p!
0g"
1f"
0u!
0v!
1q!
0t!
1u!
1v!
1w!
0w!
#420000
0$
0]
0o!
0=!
0p!
#425000
1$
1]
1o!
1=!
1p!
1g"
0q!
1t!
0u!
0v!
1w!
#430000
0$
0]
0o!
0=!
0p!
#435000
1$
1]
1o!
1=!
1p!
0g"
0f"
1e"
0w!
1x!
1u!
1v!
1q!
0t!
0u!
1w!
0x!
0y!
0z!
1{!
1y!
1z!
0{!
#440000
0$
0]
0o!
0=!
0p!
#445000
1$
1]
1o!
1=!
1p!
1g"
0q!
1t!
1u!
#450000
0$
0]
0o!
0=!
0p!
#455000
1$
1]
1o!
1=!
1p!
0g"
1f"
0u!
0v!
1q!
0t!
1u!
1v!
0w!
1x!
0y!
0z!
1w!
0x!
1y!
1z!
1{!
0{!
#460000
0$
0]
0o!
0=!
0p!
#465000
1$
1]
1o!
1=!
1p!
1g"
0q!
1t!
0r!
0u!
0v!
0w!
1x!
0y!
0z!
1{!
#470000
0$
0]
0o!
0=!
0p!
#475000
1$
1]
1o!
1=!
1p!
0g"
0f"
0e"
0d"
1c"
0{!
1|!
1y!
1z!
1w!
0x!
1u!
1v!
1q!
0t!
1r!
0u!
0w!
0y!
1{!
0|!
0}!
0~!
1!"
1}!
1~!
0!"
#480000
0$
0]
0o!
0=!
0p!
#485000
1$
1]
1o!
1=!
1p!
1g"
0q!
1t!
1u!
#490000
0$
0]
0o!
0=!
0p!
#495000
1$
1]
1o!
1=!
1p!
0g"
1f"
0u!
0v!
1q!
0t!
1u!
1v!
1w!
0w!
#500000
0$
0]
0o!
0=!
0p!
#505000
1$
1]
1o!
1=!
1p!
1g"
0q!
1t!
0u!
0v!
1w!
#510000
0$
0]
0o!
0=!
0p!
#515000
1$
1]
1o!
1=!
1p!
0g"
0f"
1e"
0w!
1x!
1u!
1v!
1q!
0t!
0u!
1w!
0x!
1y!
0y!
#520000
0$
0]
0o!
0=!
0p!
#525000
1$
1]
1o!
1=!
1p!
1g"
0q!
1t!
1u!
#530000
0$
0]
0o!
0=!
0p!
#535000
1$
1]
1o!
1=!
1p!
0g"
1f"
0u!
0v!
1q!
0t!
1u!
1v!
0w!
1x!
1y!
1w!
0x!
0y!
#540000
0$
0]
0o!
0=!
0p!
#545000
1$
1]
1o!
1=!
1p!
1g"
0q!
1t!
0u!
0v!
0w!
1x!
1y!
#550000
0$
0]
0o!
0=!
0p!
#555000
1$
1]
1o!
1=!
1p!
0g"
0f"
0e"
1d"
0y!
0z!
1w!
0x!
1u!
1v!
1q!
0t!
0u!
0w!
1y!
1z!
0{!
1|!
0}!
0~!
1{!
0|!
1}!
1~!
1!"
0!"
#560000
0$
0]
0o!
0=!
0p!
#565000
1$
1]
1o!
1=!
1p!
1g"
0q!
1t!
1u!
#570000
0$
0]
0o!
0=!
0p!
#575000
1$
1]
1o!
1=!
1p!
0g"
1f"
0u!
0v!
1q!
0t!
1u!
1v!
1w!
0w!
#580000
0$
0]
0o!
0=!
0p!
#585000
1$
1]
1o!
1=!
1p!
1g"
0q!
1t!
0u!
0v!
1w!
#590000
0$
0]
0o!
0=!
0p!
#595000
1$
1]
1o!
1=!
1p!
0g"
0f"
1e"
0w!
1x!
1u!
1v!
1q!
0t!
0u!
1w!
0x!
0y!
0z!
0{!
1|!
1y!
1z!
1{!
0|!
0}!
0~!
1!"
1}!
1~!
0!"
#600000
0$
0]
0o!
0=!
0p!
#605000
1$
1]
1o!
1=!
1p!
1g"
0q!
1t!
1u!
#610000
0$
0]
0o!
0=!
0p!
#615000
1$
1]
1o!
1=!
1p!
0g"
1f"
0u!
0v!
1q!
0t!
1u!
1v!
0w!
1x!
0y!
0z!
1w!
0x!
1y!
1z!
0{!
1|!
0}!
0~!
1{!
0|!
1}!
1~!
1!"
0!"
#620000
0$
0]
0o!
0=!
0p!
#625000
1$
1]
1o!
1=!
1p!
1g"
0q!
1t!
0r!
0u!
0v!
0w!
1x!
0y!
0z!
0{!
1|!
0}!
0~!
1!"
#630000
0$
0]
0o!
0=!
0p!
#635000
1$
1]
1o!
1=!
1p!
0g"
0f"
0e"
0d"
0c"
0b"
1a"
0!"
1""
1}!
1~!
1{!
0|!
1y!
1z!
1w!
0x!
1u!
1v!
1q!
0t!
1r!
0u!
0w!
0y!
0{!
0}!
1!"
0""
1#"
0#"
#640000
0$
0]
0o!
0=!
0p!
#645000
1$
1]
1o!
1=!
1p!
1g"
0q!
1t!
1u!
#650000
0$
0]
0o!
0=!
0p!
#655000
1$
1]
1o!
1=!
1p!
0g"
1f"
0u!
0v!
1q!
0t!
1u!
1v!
1w!
0w!
#660000
0$
0]
0o!
0=!
0p!
#665000
1$
1]
1o!
1=!
1p!
1g"
0q!
1t!
0u!
0v!
1w!
#670000
0$
0]
0o!
0=!
0p!
#675000
1$
1]
1o!
1=!
1p!
0g"
0f"
1e"
0w!
1x!
1u!
1v!
1q!
0t!
0u!
1w!
0x!
1y!
0y!
#680000
0$
0]
0o!
0=!
0p!
#685000
1$
1]
1o!
1=!
1p!
1g"
0q!
1t!
1u!
#690000
0$
0]
0o!
0=!
0p!
#695000
1$
1]
1o!
1=!
1p!
0g"
1f"
0u!
0v!
1q!
0t!
1u!
1v!
0w!
1x!
1y!
1w!
0x!
0y!
#700000
0$
0]
0o!
0=!
0p!
#705000
1$
1]
1o!
1=!
1p!
1g"
0q!
1t!
0u!
0v!
0w!
1x!
1y!
#710000
0$
0]
0o!
0=!
0p!
#715000
1$
1]
1o!
1=!
1p!
0g"
0f"
0e"
1d"
0y!
0z!
1w!
0x!
1u!
1v!
1q!
0t!
0u!
0w!
1y!
1z!
1{!
0{!
#720000
0$
0]
0o!
0=!
0p!
#725000
1$
1]
1o!
1=!
1p!
1g"
0q!
1t!
1u!
#730000
0$
0]
0o!
0=!
0p!
#735000
1$
1]
1o!
1=!
1p!
0g"
1f"
0u!
0v!
1q!
0t!
1u!
1v!
1w!
0w!
#740000
0$
0]
0o!
0=!
0p!
#745000
1$
1]
1o!
1=!
1p!
1g"
0q!
1t!
0u!
0v!
1w!
#750000
0$
0]
0o!
0=!
0p!
#755000
1$
1]
1o!
1=!
1p!
0g"
0f"
1e"
0w!
1x!
1u!
1v!
1q!
0t!
0u!
1w!
0x!
0y!
0z!
1{!
1y!
1z!
0{!
#760000
0$
0]
0o!
0=!
0p!
#765000
1$
1]
1o!
1=!
1p!
1g"
0q!
1t!
1u!
#770000
0$
0]
0o!
0=!
0p!
#775000
1$
1]
1o!
1=!
1p!
0g"
1f"
0u!
0v!
1q!
0t!
1u!
1v!
0w!
1x!
0y!
0z!
1w!
0x!
1y!
1z!
1{!
0{!
#780000
0$
0]
0o!
0=!
0p!
#785000
1$
1]
1o!
1=!
1p!
1g"
0q!
1t!
0r!
0u!
0v!
0w!
1x!
0y!
0z!
1{!
#790000
0$
0]
0o!
0=!
0p!
#795000
1$
1]
1o!
1=!
1p!
0g"
0f"
0e"
0d"
1c"
0{!
1|!
1y!
1z!
1w!
0x!
1u!
1v!
1q!
0t!
1r!
0u!
0w!
0y!
1{!
0|!
1}!
0}!
#800000
0$
0]
0o!
0=!
0p!
#805000
1$
1]
1o!
1=!
1p!
1g"
0q!
1t!
1u!
#810000
0$
0]
0o!
0=!
0p!
#815000
1$
1]
1o!
1=!
1p!
0g"
1f"
0u!
0v!
1q!
0t!
1u!
1v!
1w!
0w!
#820000
0$
0]
0o!
0=!
0p!
#825000
1$
1]
1o!
1=!
1p!
1g"
0q!
1t!
0u!
0v!
1w!
#830000
0$
0]
0o!
0=!
0p!
#835000
1$
1]
1o!
1=!
1p!
0g"
0f"
1e"
0w!
1x!
1u!
1v!
1q!
0t!
0u!
1w!
0x!
1y!
0y!
#840000
0$
0]
0o!
0=!
0p!
